%YAML 1.1
%TAG !u! tag:unity3d.com,2011:
--- !u!74 &7400000
AnimationClip:
  m_ObjectHideFlags: 0
  m_PrefabParentObject: {fileID: 0}
  m_PrefabInternal: {fileID: 0}
  m_Name: Car12
  serializedVersion: 4
  m_AnimationType: 1
  m_Compressed: 0
  m_UseHighQualityCurve: 1
  m_RotationCurves:
  - curve:
      serializedVersion: 2
      m_Curve:
      - time: 0
        value: {x: -0, y: -.707106769, z: -0, w: -.707106769}
        inSlope: {x: 0, y: -.00690579368, z: 0, w: .00690579368}
        outSlope: {x: 0, y: -.00690579368, z: 0, w: .00690579368}
        tangentMode: -559038737
      - time: .833333194
        value: {x: -0, y: -.882349372, z: -0, w: -.470594943}
        inSlope: {x: 0, y: -.269458562, z: 0, w: .505259812}
        outSlope: {x: 0, y: -.269458562, z: 0, w: .505259812}
        tangentMode: -559038737
      - time: 1.44999933
        value: {x: -0, y: -.989430666, z: -0, w: -.14500688}
        inSlope: {x: 0, y: -.06814605, z: 0, w: .464741886}
        outSlope: {x: 0, y: -.06814605, z: 0, w: .464741886}
        tangentMode: -559038737
      - time: 2.03333211
        value: {x: -0, y: -1, z: -0, w: 1.78058963e-05}
        inSlope: {x: 0, y: 0, z: 0, w: .00106573198}
        outSlope: {x: 0, y: 0, z: 0, w: .00106573198}
        tangentMode: -559038737
      - time: 2.86666465
        value: {x: -0, y: -.999945939, z: -0, w: .0103977676}
        inSlope: {x: 0, y: .000227093915, z: 0, w: .0219715033}
        outSlope: {x: 0, y: .000227093915, z: 0, w: .0219715033}
        tangentMode: -559038737
      - time: 3.69999719
        value: {x: -0, y: -.999438524, z: -0, w: .0335063636}
        inSlope: {x: 0, y: .00105857954, z: 0, w: .0316144451}
        outSlope: {x: 0, y: .00105857954, z: 0, w: .0316144451}
        tangentMode: -559038737
      - time: 4.51667023
        value: {x: -0, y: -.998230577, z: -0, w: .0594614707}
        inSlope: {x: 0, y: .00179705606, z: 0, w: .0301477388}
        outSlope: {x: 0, y: .00179705606, z: 0, w: .0301477388}
        tangentMode: -559038737
      - time: 5.3333478
        value: {x: -0, y: -.996809304, z: -0, w: .0798197165}
        inSlope: {x: 0, y: .0014358568, z: 0, w: .0179169178}
        outSlope: {x: 0, y: .0014358568, z: 0, w: .0179169178}
        tangentMode: -559038737
      - time: 6.03335714
        value: {x: -0, y: -.996228039, z: -0, w: .086774081}
        inSlope: {x: 0, y: .00303443195, z: 0, w: .0347898006}
        outSlope: {x: 0, y: .00303443195, z: 0, w: .0347898006}
        tangentMode: -559038737
      - time: 6.85003471
        value: {x: -0, y: -.935377479, z: -0, w: .353650868}
        inSlope: {x: 0, y: .183163822, z: 0, w: .484421045}
        outSlope: {x: 0, y: .183163822, z: 0, w: .484421045}
        tangentMode: -559038737
      - time: 7.50004339
        value: {x: -0, y: -.776883423, z: -0, w: .629644513}
        inSlope: {x: 0, y: .245366991, z: 0, w: .302792311}
        outSlope: {x: 0, y: .245366991, z: 0, w: .302792311}
        tangentMode: -559038737
      - time: 8.05004883
        value: {x: -0, y: -.707106769, z: -0, w: .707106769}
        inSlope: {x: 0, y: 0, z: 0, w: 0}
        outSlope: {x: 0, y: 0, z: 0, w: 0}
        tangentMode: -559038737
      - time: 8.88336945
        value: {x: -0, y: -.707106769, z: -0, w: .707106769}
        inSlope: {x: 0, y: 0, z: 0, w: 0}
        outSlope: {x: 0, y: 0, z: 0, w: 0}
        tangentMode: -559038737
      - time: 9.71669006
        value: {x: -0, y: -.707106769, z: -0, w: .707106769}
        inSlope: {x: 0, y: 0, z: 0, w: 0}
        outSlope: {x: 0, y: 0, z: 0, w: 0}
        tangentMode: -559038737
      - time: 10.5500107
        value: {x: -0, y: -.707106769, z: -0, w: .707106769}
        inSlope: {x: 0, y: 0, z: 0, w: 0}
        outSlope: {x: 0, y: 0, z: 0, w: 0}
        tangentMode: -559038737
      - time: 11.3833313
        value: {x: -0, y: -.707106769, z: -0, w: .707106769}
        inSlope: {x: 0, y: 0, z: 0, w: 0}
        outSlope: {x: 0, y: 0, z: 0, w: 0}
        tangentMode: -559038737
      - time: 12.2166519
        value: {x: -0, y: -.707106769, z: -0, w: .707106769}
        inSlope: {x: 0, y: 0, z: 0, w: 0}
        outSlope: {x: 0, y: 0, z: 0, w: 0}
        tangentMode: -559038737
      - time: 13.0499725
        value: {x: -0, y: -.707106769, z: -0, w: .707106769}
        inSlope: {x: 0, y: 0, z: 0, w: 0}
        outSlope: {x: 0, y: 0, z: 0, w: 0}
        tangentMode: -559038737
      - time: 13.8832932
        value: {x: -0, y: -.707106769, z: -0, w: .707106769}
        inSlope: {x: 0, y: 0, z: 0, w: 0}
        outSlope: {x: 0, y: 0, z: 0, w: 0}
        tangentMode: -559038737
      - time: 14.7166138
        value: {x: -0, y: -.707106769, z: -0, w: .707106769}
        inSlope: {x: 0, y: 0, z: 0, w: 0}
        outSlope: {x: 0, y: 0, z: 0, w: 0}
        tangentMode: -559038737
      - time: 15.5499344
        value: {x: -0, y: -.707106769, z: -0, w: .707106769}
        inSlope: {x: 0, y: 0, z: 0, w: 0}
        outSlope: {x: 0, y: 0, z: 0, w: 0}
        tangentMode: -559038737
      - time: 16.383255
        value: {x: -0, y: -.707106769, z: -0, w: .707106769}
        inSlope: {x: 0, y: 0, z: 0, w: 0}
        outSlope: {x: 0, y: 0, z: 0, w: 0}
        tangentMode: -559038737
      - time: 17.2165756
        value: {x: -0, y: -.707106769, z: -0, w: .707106769}
        inSlope: {x: 0, y: 0, z: 0, w: 0}
        outSlope: {x: 0, y: 0, z: 0, w: 0}
        tangentMode: -559038737
      - time: 18.0498962
        value: {x: -0, y: -.707106769, z: -0, w: .707106769}
        inSlope: {x: 0, y: 0, z: 0, w: 0}
        outSlope: {x: 0, y: 0, z: 0, w: 0}
        tangentMode: -559038737
      - time: 18.8832169
        value: {x: -0, y: -.707106769, z: -0, w: .707106769}
        inSlope: {x: 0, y: 0, z: 0, w: 0}
        outSlope: {x: 0, y: 0, z: 0, w: 0}
        tangentMode: -559038737
      - time: 19.7165375
        value: {x: -0, y: -.707106769, z: -0, w: .707106769}
        inSlope: {x: 0, y: 0, z: 0, w: 0}
        outSlope: {x: 0, y: 0, z: 0, w: 0}
        tangentMode: -559038737
      - time: 20.5498581
        value: {x: -0, y: -.707106769, z: -0, w: .707106769}
        inSlope: {x: 0, y: 0, z: 0, w: 0}
        outSlope: {x: 0, y: 0, z: 0, w: 0}
        tangentMode: -559038737
      - time: 21.3831787
        value: {x: -0, y: -.707106769, z: -0, w: .707106769}
        inSlope: {x: 0, y: 0, z: 0, w: 0}
        outSlope: {x: 0, y: 0, z: 0, w: 0}
        tangentMode: -559038737
      - time: 22.2164993
        value: {x: -0, y: -.707106769, z: -0, w: .707106769}
        inSlope: {x: 0, y: 0, z: 0, w: 0}
        outSlope: {x: 0, y: 0, z: 0, w: 0}
        tangentMode: -559038737
      - time: 22.9831543
        value: {x: -0, y: -.706638455, z: -0, w: .707574785}
        inSlope: {x: 0, y: .0280670635, z: 0, w: .0280205719}
        outSlope: {x: 0, y: .0280670635, z: 0, w: .0280205719}
        tangentMode: -559038737
      - time: 23.8164749
        value: {x: -0, y: -.446071416, z: -0, w: .894997358}
        inSlope: {x: 0, y: .528507829, z: 0, w: .263398737}
        outSlope: {x: 0, y: .528507829, z: 0, w: .263398737}
        tangentMode: -559038737
      - time: 24.4164658
        value: {x: -0, y: -.126236722, z: -0, w: .992000163}
        inSlope: {x: 0, y: .450722158, z: 0, w: .0573947877}
        outSlope: {x: 0, y: .450722158, z: 0, w: .0573947877}
        tangentMode: -559038737
      - time: 24.9664574
        value: {x: -0, y: 8.74227766e-08, z: -0, w: 1}
        inSlope: {x: 0, y: 0, z: 0, w: 0}
        outSlope: {x: 0, y: 0, z: 0, w: 0}
        tangentMode: -559038737
      - time: 25.799778
        value: {x: -0, y: 8.74227766e-08, z: -0, w: 1}
        inSlope: {x: 0, y: 0, z: 0, w: 0}
        outSlope: {x: 0, y: 0, z: 0, w: 0}
        tangentMode: -559038737
      - time: 26.6330986
        value: {x: -0, y: 8.74227766e-08, z: -0, w: 1}
        inSlope: {x: 0, y: 0, z: 0, w: 0}
        outSlope: {x: 0, y: 0, z: 0, w: 0}
        tangentMode: -559038737
      - time: 27.4664192
        value: {x: -0, y: 8.74227766e-08, z: -0, w: 1}
        inSlope: {x: 0, y: 0, z: 0, w: 0}
        outSlope: {x: 0, y: 0, z: 0, w: 0}
        tangentMode: -559038737
      - time: 28.2997398
        value: {x: -0, y: 8.74227766e-08, z: -0, w: 1}
        inSlope: {x: 0, y: 0, z: 0, w: 0}
        outSlope: {x: 0, y: 0, z: 0, w: 0}
        tangentMode: -559038737
      - time: 28.9663963
        value: {x: -0, y: .000658599485, z: -0, w: .999999762}
        inSlope: {x: 0, y: .0395470783, z: 0, w: -3.21869993e-05}
        outSlope: {x: 0, y: .0395470783, z: 0, w: -3.21869993e-05}
        tangentMode: -559038737
      - time: 29.7997169
        value: {x: -0, y: .317387104, z: -0, w: .94829607}
        inSlope: {x: 0, y: .559951842, z: 0, w: -.18742311}
        outSlope: {x: 0, y: .559951842, z: 0, w: -.18742311}
        tangentMode: -559038737
      - time: 30.3997078
        value: {x: -0, y: .612154245, z: -0, w: .790738344}
        inSlope: {x: 0, y: .359349966, z: 0, w: -.278143942}
        outSlope: {x: 0, y: .359349966, z: 0, w: -.278143942}
        tangentMode: -559038737
      - time: 30.9496994
        value: {x: -0, y: .707106709, z: -0, w: .707106829}
        inSlope: {x: 0, y: 0, z: 0, w: 0}
        outSlope: {x: 0, y: 0, z: 0, w: 0}
        tangentMode: -559038737
      - time: 31.78302
        value: {x: -0, y: .707106709, z: -0, w: .707106829}
        inSlope: {x: 0, y: 0, z: 0, w: 0}
        outSlope: {x: 0, y: 0, z: 0, w: 0}
        tangentMode: -559038737
      - time: 32.6163406
        value: {x: -0, y: .707106709, z: -0, w: .707106829}
        inSlope: {x: 0, y: 0, z: 0, w: 0}
        outSlope: {x: 0, y: 0, z: 0, w: 0}
        tangentMode: -559038737
      - time: 33.4496613
        value: {x: -0, y: .707106709, z: -0, w: .707106829}
        inSlope: {x: 0, y: 0, z: 0, w: 0}
        outSlope: {x: 0, y: 0, z: 0, w: 0}
        tangentMode: -559038737
      - time: 34.2829819
        value: {x: -0, y: .707106709, z: -0, w: .707106829}
        inSlope: {x: 0, y: 0, z: 0, w: 0}
        outSlope: {x: 0, y: 0, z: 0, w: 0}
        tangentMode: -559038737
      - time: 35.1163025
        value: {x: -0, y: .707106709, z: -0, w: .707106829}
        inSlope: {x: 0, y: 0, z: 0, w: 0}
        outSlope: {x: 0, y: 0, z: 0, w: 0}
        tangentMode: -559038737
      - time: 35.9496231
        value: {x: -0, y: .707106709, z: -0, w: .707106829}
        inSlope: {x: 0, y: 0, z: 0, w: 0}
        outSlope: {x: 0, y: 0, z: 0, w: 0}
        tangentMode: -559038737
      - time: 36.7829437
        value: {x: -0, y: .707106709, z: -0, w: .707106829}
        inSlope: {x: 0, y: 0, z: 0, w: 0}
        outSlope: {x: 0, y: 0, z: 0, w: 0}
        tangentMode: -559038737
      - time: 37.6162643
        value: {x: -0, y: .707106709, z: -0, w: .707106829}
        inSlope: {x: 0, y: 0, z: 0, w: 0}
        outSlope: {x: 0, y: 0, z: 0, w: 0}
        tangentMode: -559038737
      - time: 38.449585
        value: {x: -0, y: .707106709, z: -0, w: .707106829}
        inSlope: {x: 0, y: 0, z: 0, w: 0}
        outSlope: {x: 0, y: 0, z: 0, w: 0}
        tangentMode: -559038737
      - time: 39.2829056
        value: {x: -0, y: .707106709, z: -0, w: .707106829}
        inSlope: {x: 0, y: 0, z: 0, w: 0}
        outSlope: {x: 0, y: 0, z: 0, w: 0}
        tangentMode: -559038737
      - time: 40.1162262
        value: {x: -0, y: .707106709, z: -0, w: .707106829}
        inSlope: {x: 0, y: 0, z: 0, w: 0}
        outSlope: {x: 0, y: 0, z: 0, w: 0}
        tangentMode: -559038737
      - time: 40.9495468
        value: {x: -0, y: .707106709, z: -0, w: .707106829}
        inSlope: {x: 0, y: 0, z: 0, w: 0}
        outSlope: {x: 0, y: 0, z: 0, w: 0}
        tangentMode: -559038737
      - time: 41.7828674
        value: {x: -0, y: .707106709, z: -0, w: .707106829}
        inSlope: {x: 0, y: 0, z: 0, w: 0}
        outSlope: {x: 0, y: 0, z: 0, w: 0}
        tangentMode: -559038737
      - time: 42.616188
        value: {x: -0, y: .707106709, z: -0, w: .707106829}
        inSlope: {x: 0, y: 0, z: 0, w: 0}
        outSlope: {x: 0, y: 0, z: 0, w: 0}
        tangentMode: -559038737
      - time: 43.4495087
        value: {x: -0, y: .707106709, z: -0, w: .707106829}
        inSlope: {x: 0, y: 0, z: 0, w: 0}
        outSlope: {x: 0, y: 0, z: 0, w: 0}
        tangentMode: -559038737
      - time: 44.2828293
        value: {x: -0, y: .707106709, z: -0, w: .707106829}
        inSlope: {x: 0, y: 0, z: 0, w: 0}
        outSlope: {x: 0, y: 0, z: 0, w: 0}
        tangentMode: -559038737
      - time: 45.1161499
        value: {x: -0, y: .707106709, z: -0, w: .707106829}
        inSlope: {x: 0, y: 0, z: 0, w: 0}
        outSlope: {x: 0, y: 0, z: 0, w: 0}
        tangentMode: -559038737
      - time: 45.9494705
        value: {x: -0, y: .707106709, z: -0, w: .707106829}
        inSlope: {x: 0, y: 0, z: 0, w: 0}
        outSlope: {x: 0, y: 0, z: 0, w: 0}
        tangentMode: -559038737
      - time: 46.7827911
        value: {x: -0, y: .707106709, z: -0, w: .707106829}
        inSlope: {x: 0, y: 0, z: 0, w: 0}
        outSlope: {x: 0, y: 0, z: 0, w: 0}
        tangentMode: -559038737
      - time: 47.6161118
        value: {x: -0, y: .707106709, z: -0, w: .707106829}
        inSlope: {x: 0, y: 0, z: 0, w: 0}
        outSlope: {x: 0, y: 0, z: 0, w: 0}
        tangentMode: -559038737
      - time: 48
        value: {x: -0, y: .707106709, z: -0, w: .707106829}
        inSlope: {x: 0, y: 0, z: 0, w: 0}
        outSlope: {x: 0, y: 0, z: 0, w: 0}
        tangentMode: -559038737
      m_PreInfinity: 2
      m_PostInfinity: 2
    path: 
  m_CompressedRotationCurves: []
  m_PositionCurves:
  - curve:
      serializedVersion: 2
      m_Curve:
      - time: 0
        value: {x: 256.478912, y: .319999993, z: 247.608444}
        inSlope: {x: 2.03294373, y: 0, z: 0}
        outSlope: {x: 2.03294373, y: 0, z: 0}
        tangentMode: -559038737
      - time: 2
        value: {x: 260.5448, y: .319999993, z: 242.686356}
        inSlope: {x: 0, y: 0, z: -4.17838287}
        outSlope: {x: 0, y: 0, z: -4.17838287}
        tangentMode: -559038737
      - time: 6
        value: {x: 260.5448, y: .319999993, z: 219.10347}
        inSlope: {x: 0, y: 0, z: -4.08516121}
        outSlope: {x: 0, y: 0, z: -4.08516121}
        tangentMode: -559038737
      - time: 7.98333311
        value: {x: 255.843338, y: .319999993, z: 214.592178}
        inSlope: {x: -4.39285755, y: 0, z: 0}
        outSlope: {x: -4.39285755, y: 0, z: 0}
        tangentMode: -559038737
      - time: 15.2833338
        value: {x: 209.012161, y: .319999993, z: 214.592178}
        inSlope: {x: 0, y: 0, z: 0}
        outSlope: {x: 0, y: 0, z: 0}
        tangentMode: -559038737
      - time: 16.833334
        value: {x: 208.905121, y: .319999993, z: 214.592178}
        inSlope: {x: 0, y: 0, z: 0}
        outSlope: {x: 0, y: 0, z: 0}
        tangentMode: -559038737
      - time: 22.9499989
        value: {x: 159.784378, y: .319999993, z: 214.592163}
        inSlope: {x: -5.11077976, y: 0, z: 0}
        outSlope: {x: -5.11077976, y: 0, z: 0}
        tangentMode: -559038737
      - time: 24.916666
        value: {x: 155.475571, y: .319999993, z: 218.76503}
        inSlope: {x: 0, y: 0, z: 4.12054348}
        outSlope: {x: 0, y: 0, z: 4.12054348}
        tangentMode: -559038737
      - time: 28.9333324
        value: {x: 155.475571, y: .319999993, z: 243.344177}
        inSlope: {x: 0, y: 0, z: 4.12450027}
        outSlope: {x: 0, y: 0, z: 4.12450027}
        tangentMode: -559038737
      - time: 30.8999996
        value: {x: 159.607651, y: .319999993, z: 247.532608}
        inSlope: {x: 3.88302159, y: 0, z: 0}
        outSlope: {x: 3.88302159, y: 0, z: 0}
        tangentMode: -559038737
      - time: 48
        value: {x: 256.478912, y: .319999993, z: 247.608444}
        inSlope: {x: 5.66498613, y: 0, z: 0}
        outSlope: {x: 5.66498613, y: 0, z: 0}
        tangentMode: -559038737
      m_PreInfinity: 2
      m_PostInfinity: 2
    path: 
  m_ScaleCurves:
  - curve:
      serializedVersion: 2
      m_Curve:
      - time: 0
        value: {x: 1, y: 1, z: 1}
        inSlope: {x: 0, y: 0, z: 0}
        outSlope: {x: 0, y: 0, z: 0}
        tangentMode: -559038737
      - time: 2
        value: {x: 1, y: 1, z: 1}
        inSlope: {x: 0, y: 0, z: 0}
        outSlope: {x: 0, y: 0, z: 0}
        tangentMode: -559038737
      - time: 6
        value: {x: 1, y: 1, z: 1}
        inSlope: {x: 0, y: 0, z: 0}
        outSlope: {x: 0, y: 0, z: 0}
        tangentMode: -559038737
      - time: 7.98333311
        value: {x: 1, y: 1, z: 1}
        inSlope: {x: 0, y: 0, z: 0}
        outSlope: {x: 0, y: 0, z: 0}
        tangentMode: -559038737
      - time: 15.2833338
        value: {x: 1, y: 1, z: 1}
        inSlope: {x: 0, y: 0, z: 0}
        outSlope: {x: 0, y: 0, z: 0}
        tangentMode: -559038737
      - time: 16.833334
        value: {x: 1, y: 1, z: 1}
        inSlope: {x: 0, y: 0, z: 0}
        outSlope: {x: 0, y: 0, z: 0}
        tangentMode: -559038737
      - time: 22.9499989
        value: {x: 1, y: 1, z: 1}
        inSlope: {x: 0, y: 0, z: 0}
        outSlope: {x: 0, y: 0, z: 0}
        tangentMode: -559038737
      - time: 24.916666
        value: {x: 1, y: 1, z: 1}
        inSlope: {x: 0, y: 0, z: 0}
        outSlope: {x: 0, y: 0, z: 0}
        tangentMode: -559038737
      - time: 28.9333324
        value: {x: 1, y: 1, z: 1}
        inSlope: {x: 0, y: 0, z: 0}
        outSlope: {x: 0, y: 0, z: 0}
        tangentMode: -559038737
      - time: 30.8999996
        value: {x: 1, y: 1, z: 1}
        inSlope: {x: 0, y: 0, z: 0}
        outSlope: {x: 0, y: 0, z: 0}
        tangentMode: -559038737
      - time: 48
        value: {x: 1, y: 1, z: 1}
        inSlope: {x: 0, y: 0, z: 0}
        outSlope: {x: 0, y: 0, z: 0}
        tangentMode: -559038737
      m_PreInfinity: 2
      m_PostInfinity: 2
    path: 
  m_FloatCurves: []
  m_PPtrCurves: []
  m_SampleRate: 60
  m_WrapMode: 2
  m_Bounds:
    m_Center: {x: 0, y: 0, z: 0}
    m_Extent: {x: 0, y: 0, z: 0}
  m_ClipBindingConstant:
    genericBindings: []
    pptrCurveMapping: []
  m_AnimationClipSettings:
    serializedVersion: 2
    m_StartTime: 0
    m_StopTime: 1
    m_OrientationOffsetY: 0
    m_Level: 0
    m_CycleOffset: 0
    m_LoopTime: 0
    m_LoopBlend: 0
    m_LoopBlendOrientation: 0
    m_LoopBlendPositionY: 0
    m_LoopBlendPositionXZ: 0
    m_KeepOriginalOrientation: 0
    m_KeepOriginalPositionY: 1
    m_KeepOriginalPositionXZ: 0
    m_HeightFromFeet: 0
    m_Mirror: 0
  m_EditorCurves:
  - curve:
      serializedVersion: 2
      m_Curve:
      - time: 0
        value: 256.478912
        inSlope: 2.03294373
        outSlope: 2.03294373
        tangentMode: 10
      - time: 2
        value: 260.5448
        inSlope: 0
        outSlope: 0
        tangentMode: 0
      - time: 6
        value: 260.5448
        inSlope: 0
        outSlope: 0
        tangentMode: 0
      - time: 7.98333311
        value: 255.843338
        inSlope: -4.39285755
        outSlope: -4.39285755
        tangentMode: 10
      - time: 15.2833338
        value: 209.012161
        inSlope: 0
        outSlope: 0
        tangentMode: 0
      - time: 16.833334
        value: 208.905121
        inSlope: 0
        outSlope: 0
        tangentMode: 0
      - time: 22.9499989
        value: 159.784378
        inSlope: -5.11077976
        outSlope: -5.11077976
        tangentMode: 10
      - time: 24.916666
        value: 155.475571
        inSlope: 0
        outSlope: 0
        tangentMode: 0
      - time: 28.9333324
        value: 155.475571
        inSlope: 0
        outSlope: 0
        tangentMode: 0
      - time: 30.8999996
        value: 159.607651
        inSlope: 3.88302159
        outSlope: 3.88302159
        tangentMode: 10
      - time: 48
        value: 256.478912
        inSlope: 5.66498613
        outSlope: 5.66498613
        tangentMode: 10
      m_PreInfinity: 2
      m_PostInfinity: 2
    attribute: m_LocalPosition.x
    path: 
    classID: 4
    script: {fileID: 0}
  - curve:
      serializedVersion: 2
      m_Curve:
      - time: 0
        value: .319999993
        inSlope: 0
        outSlope: 0
        tangentMode: 10
      - time: 2
        value: .319999993
        inSlope: 0
        outSlope: 0
        tangentMode: 10
      - time: 6
        value: .319999993
        inSlope: 0
        outSlope: 0
        tangentMode: 10
      - time: 7.98333311
        value: .319999993
        inSlope: 0
        outSlope: 0
        tangentMode: 10
      - time: 15.2833338
        value: .319999993
        inSlope: 0
        outSlope: 0
        tangentMode: 10
      - time: 16.833334
        value: .319999993
        inSlope: 0
        outSlope: 0
        tangentMode: 10
      - time: 22.9499989
        value: .319999993
        inSlope: 0
        outSlope: 0
        tangentMode: 10
      - time: 24.916666
        value: .319999993
        inSlope: 0
        outSlope: 0
        tangentMode: 10
      - time: 28.9333324
        value: .319999993
        inSlope: 0
        outSlope: 0
        tangentMode: 10
      - time: 30.8999996
        value: .319999993
        inSlope: 0
        outSlope: 0
        tangentMode: 10
      - time: 48
        value: .319999993
        inSlope: 0
        outSlope: 0
        tangentMode: 10
      m_PreInfinity: 2
      m_PostInfinity: 2
    attribute: m_LocalPosition.y
    path: 
    classID: 4
    script: {fileID: 0}
  - curve:
      serializedVersion: 2
      m_Curve:
      - time: 0
        value: 247.608444
        inSlope: 0
        outSlope: 0
        tangentMode: 0
      - time: 2
        value: 242.686356
        inSlope: -4.17838287
        outSlope: -4.17838287
        tangentMode: 10
      - time: 6
        value: 219.10347
        inSlope: -4.08516121
        outSlope: -4.08516121
        tangentMode: 10
      - time: 7.98333311
        value: 214.592178
        inSlope: 0
        outSlope: 0
        tangentMode: 0
      - time: 15.2833338
        value: 214.592178
        inSlope: 0
        outSlope: 0
        tangentMode: 0
      - time: 16.833334
        value: 214.592178
        inSlope: 0
        outSlope: 0
        tangentMode: 0
      - time: 22.9499989
        value: 214.592163
        inSlope: 0
        outSlope: 0
        tangentMode: 0
      - time: 24.916666
        value: 218.76503
        inSlope: 4.12054348
        outSlope: 4.12054348
        tangentMode: 10
      - time: 28.9333324
        value: 243.344177
        inSlope: 4.12450027
        outSlope: 4.12450027
        tangentMode: 10
      - time: 30.8999996
        value: 247.532608
        inSlope: 0
        outSlope: 0
        tangentMode: 0
      - time: 48
        value: 247.608444
        inSlope: 0
        outSlope: 0
        tangentMode: 0
      m_PreInfinity: 2
      m_PostInfinity: 2
    attribute: m_LocalPosition.z
    path: 
    classID: 4
    script: {fileID: 0}
  - curve:
      serializedVersion: 2
      m_Curve:
      - time: 0
        value: 1
        inSlope: 0
        outSlope: 0
        tangentMode: 10
      - time: 2
        value: 1
        inSlope: 0
        outSlope: 0
        tangentMode: 10
      - time: 6
        value: 1
        inSlope: 0
        outSlope: 0
        tangentMode: 10
      - time: 7.98333311
        value: 1
        inSlope: 0
        outSlope: 0
        tangentMode: 10
      - time: 15.2833338
        value: 1
        inSlope: 0
        outSlope: 0
        tangentMode: 10
      - time: 16.833334
        value: 1
        inSlope: 0
        outSlope: 0
        tangentMode: 10
      - time: 22.9499989
        value: 1
        inSlope: 0
        outSlope: 0
        tangentMode: 10
      - time: 24.916666
        value: 1
        inSlope: 0
        outSlope: 0
        tangentMode: 10
      - time: 28.9333324
        value: 1
        inSlope: 0
        outSlope: 0
        tangentMode: 10
      - time: 30.8999996
        value: 1
        inSlope: 0
        outSlope: 0
        tangentMode: 10
      - time: 48
        value: 1
        inSlope: 0
        outSlope: 0
        tangentMode: 10
      m_PreInfinity: 2
      m_PostInfinity: 2
    attribute: m_LocalScale.z
    path: 
    classID: 4
    script: {fileID: 0}
  - curve:
      serializedVersion: 2
      m_Curve:
      - time: 0
        value: 1
        inSlope: 0
        outSlope: 0
        tangentMode: 10
      - time: 2
        value: 1
        inSlope: 0
        outSlope: 0
        tangentMode: 10
      - time: 6
        value: 1
        inSlope: 0
        outSlope: 0
        tangentMode: 10
      - time: 7.98333311
        value: 1
        inSlope: 0
        outSlope: 0
        tangentMode: 10
      - time: 15.2833338
        value: 1
        inSlope: 0
        outSlope: 0
        tangentMode: 10
      - time: 16.833334
        value: 1
        inSlope: 0
        outSlope: 0
        tangentMode: 10
      - time: 22.9499989
        value: 1
        inSlope: 0
        outSlope: 0
        tangentMode: 10
      - time: 24.916666
        value: 1
        inSlope: 0
        outSlope: 0
        tangentMode: 10
      - time: 28.9333324
        value: 1
        inSlope: 0
        outSlope: 0
        tangentMode: 10
      - time: 30.8999996
        value: 1
        inSlope: 0
        outSlope: 0
        tangentMode: 10
      - time: 48
        value: 1
        inSlope: 0
        outSlope: 0
        tangentMode: 10
      m_PreInfinity: 2
      m_PostInfinity: 2
    attribute: m_LocalScale.y
    path: 
    classID: 4
    script: {fileID: 0}
  - curve:
      serializedVersion: 2
      m_Curve:
      - time: 0
        value: 1
        inSlope: 0
        outSlope: 0
        tangentMode: 10
      - time: 2
        value: 1
        inSlope: 0
        outSlope: 0
        tangentMode: 10
      - time: 6
        value: 1
        inSlope: 0
        outSlope: 0
        tangentMode: 10
      - time: 7.98333311
        value: 1
        inSlope: 0
        outSlope: 0
        tangentMode: 10
      - time: 15.2833338
        value: 1
        inSlope: 0
        outSlope: 0
        tangentMode: 10
      - time: 16.833334
        value: 1
        inSlope: 0
        outSlope: 0
        tangentMode: 10
      - time: 22.9499989
        value: 1
        inSlope: 0
        outSlope: 0
        tangentMode: 10
      - time: 24.916666
        value: 1
        inSlope: 0
        outSlope: 0
        tangentMode: 10
      - time: 28.9333324
        value: 1
        inSlope: 0
        outSlope: 0
        tangentMode: 10
      - time: 30.8999996
        value: 1
        inSlope: 0
        outSlope: 0
        tangentMode: 10
      - time: 48
        value: 1
        inSlope: 0
        outSlope: 0
        tangentMode: 10
      m_PreInfinity: 2
      m_PostInfinity: 2
    attribute: m_LocalScale.x
    path: 
    classID: 4
    script: {fileID: 0}
  - curve:
      serializedVersion: 2
      m_Curve:
      - time: 0
        value: -0
        inSlope: 0
        outSlope: 0
        tangentMode: 0
      - time: .833333194
        value: -0
        inSlope: 0
        outSlope: 0
        tangentMode: 0
      - time: 1.44999933
        value: -0
        inSlope: 0
        outSlope: 0
        tangentMode: 0
      - time: 2.03333211
        value: -0
        inSlope: 0
        outSlope: 0
        tangentMode: 0
      - time: 2.86666465
        value: -0
        inSlope: 0
        outSlope: 0
        tangentMode: 0
      - time: 3.69999719
        value: -0
        inSlope: 0
        outSlope: 0
        tangentMode: 0
      - time: 4.51667023
        value: -0
        inSlope: 0
        outSlope: 0
        tangentMode: 0
      - time: 5.3333478
        value: -0
        inSlope: 0
        outSlope: 0
        tangentMode: 0
      - time: 6.03335714
        value: -0
        inSlope: 0
        outSlope: 0
        tangentMode: 0
      - time: 6.85003471
        value: -0
        inSlope: 0
        outSlope: 0
        tangentMode: 0
      - time: 7.50004339
        value: -0
        inSlope: 0
        outSlope: 0
        tangentMode: 0
      - time: 8.05004883
        value: -0
        inSlope: 0
        outSlope: 0
        tangentMode: 0
      - time: 8.88336945
        value: -0
        inSlope: 0
        outSlope: 0
        tangentMode: 0
      - time: 9.71669006
        value: -0
        inSlope: 0
        outSlope: 0
        tangentMode: 0
      - time: 10.5500107
        value: -0
        inSlope: 0
        outSlope: 0
        tangentMode: 0
      - time: 11.3833313
        value: -0
        inSlope: 0
        outSlope: 0
        tangentMode: 0
      - time: 12.2166519
        value: -0
        inSlope: 0
        outSlope: 0
        tangentMode: 0
      - time: 13.0499725
        value: -0
        inSlope: 0
        outSlope: 0
        tangentMode: 0
      - time: 13.8832932
        value: -0
        inSlope: 0
        outSlope: 0
        tangentMode: 0
      - time: 14.7166138
        value: -0
        inSlope: 0
        outSlope: 0
        tangentMode: 0
      - time: 15.5499344
        value: -0
        inSlope: 0
        outSlope: 0
        tangentMode: 0
      - time: 16.383255
        value: -0
        inSlope: 0
        outSlope: 0
        tangentMode: 0
      - time: 17.2165756
        value: -0
        inSlope: 0
        outSlope: 0
        tangentMode: 0
      - time: 18.0498962
        value: -0
        inSlope: 0
        outSlope: 0
        tangentMode: 0
      - time: 18.8832169
        value: -0
        inSlope: 0
        outSlope: 0
        tangentMode: 0
      - time: 19.7165375
        value: -0
        inSlope: 0
        outSlope: 0
        tangentMode: 0
      - time: 20.5498581
        value: -0
        inSlope: 0
        outSlope: 0
        tangentMode: 0
      - time: 21.3831787
        value: -0
        inSlope: 0
        outSlope: 0
        tangentMode: 0
      - time: 22.2164993
        value: -0
        inSlope: 0
        outSlope: 0
        tangentMode: 0
      - time: 22.9831543
        value: -0
        inSlope: 0
        outSlope: 0
        tangentMode: 0
      - time: 23.8164749
        value: -0
        inSlope: 0
        outSlope: 0
        tangentMode: 0
      - time: 24.4164658
        value: -0
        inSlope: 0
        outSlope: 0
        tangentMode: 0
      - time: 24.9664574
        value: -0
        inSlope: 0
        outSlope: 0
        tangentMode: 0
      - time: 25.799778
        value: -0
        inSlope: 0
        outSlope: 0
        tangentMode: 0
      - time: 26.6330986
        value: -0
        inSlope: 0
        outSlope: 0
        tangentMode: 0
      - time: 27.4664192
        value: -0
        inSlope: 0
        outSlope: 0
        tangentMode: 0
      - time: 28.2997398
        value: -0
        inSlope: 0
        outSlope: 0
        tangentMode: 0
      - time: 28.9663963
        value: -0
        inSlope: 0
        outSlope: 0
        tangentMode: 0
      - time: 29.7997169
        value: -0
        inSlope: 0
        outSlope: 0
        tangentMode: 0
      - time: 30.3997078
        value: -0
        inSlope: 0
        outSlope: 0
        tangentMode: 0
      - time: 30.9496994
        value: -0
        inSlope: 0
        outSlope: 0
        tangentMode: 0
      - time: 31.78302
        value: -0
        inSlope: 0
        outSlope: 0
        tangentMode: 0
      - time: 32.6163406
        value: -0
        inSlope: 0
        outSlope: 0
        tangentMode: 0
      - time: 33.4496613
        value: -0
        inSlope: 0
        outSlope: 0
        tangentMode: 0
      - time: 34.2829819
        value: -0
        inSlope: 0
        outSlope: 0
        tangentMode: 0
      - time: 35.1163025
        value: -0
        inSlope: 0
        outSlope: 0
        tangentMode: 0
      - time: 35.9496231
        value: -0
        inSlope: 0
        outSlope: 0
        tangentMode: 0
      - time: 36.7829437
        value: -0
        inSlope: 0
        outSlope: 0
        tangentMode: 0
      - time: 37.6162643
        value: -0
        inSlope: 0
        outSlope: 0
        tangentMode: 0
      - time: 38.449585
        value: -0
        inSlope: 0
        outSlope: 0
        tangentMode: 0
      - time: 39.2829056
        value: -0
        inSlope: 0
        outSlope: 0
        tangentMode: 0
      - time: 40.1162262
        value: -0
        inSlope: 0
        outSlope: 0
        tangentMode: 0
      - time: 40.9495468
        value: -0
        inSlope: 0
        outSlope: 0
        tangentMode: 0
      - time: 41.7828674
        value: -0
        inSlope: 0
        outSlope: 0
        tangentMode: 0
      - time: 42.616188
        value: -0
        inSlope: 0
        outSlope: 0
        tangentMode: 0
      - time: 43.4495087
        value: -0
        inSlope: 0
        outSlope: 0
        tangentMode: 0
      - time: 44.2828293
        value: -0
        inSlope: 0
        outSlope: 0
        tangentMode: 0
      - time: 45.1161499
        value: -0
        inSlope: 0
        outSlope: 0
        tangentMode: 0
      - time: 45.9494705
        value: -0
        inSlope: 0
        outSlope: 0
        tangentMode: 0
      - time: 46.7827911
        value: -0
        inSlope: 0
        outSlope: 0
        tangentMode: 0
      - time: 47.6161118
        value: -0
        inSlope: 0
        outSlope: 0
        tangentMode: 0
      - time: 48
        value: -0
        inSlope: 0
        outSlope: 0
        tangentMode: 0
      m_PreInfinity: 2
      m_PostInfinity: 2
    attribute: m_LocalRotation.x
    path: 
    classID: 4
    script: {fileID: 0}
  - curve:
      serializedVersion: 2
      m_Curve:
      - time: 0
        value: -.707106769
        inSlope: -.00690579368
        outSlope: -.00690579368
        tangentMode: 0
      - time: .833333194
        value: -.882349372
        inSlope: -.269458562
        outSlope: -.269458562
        tangentMode: 0
      - time: 1.44999933
        value: -.989430666
        inSlope: -.06814605
        outSlope: -.06814605
        tangentMode: 0
      - time: 2.03333211
        value: -1
        inSlope: 0
        outSlope: 0
        tangentMode: 0
      - time: 2.86666465
        value: -.999945939
        inSlope: .000227093915
        outSlope: .000227093915
        tangentMode: 0
      - time: 3.69999719
        value: -.999438524
        inSlope: .00105857954
        outSlope: .00105857954
        tangentMode: 0
      - time: 4.51667023
        value: -.998230577
        inSlope: .00179705606
        outSlope: .00179705606
        tangentMode: 0
      - time: 5.3333478
        value: -.996809304
        inSlope: .0014358568
        outSlope: .0014358568
        tangentMode: 0
      - time: 6.03335714
        value: -.996228039
        inSlope: .00303443195
        outSlope: .00303443195
        tangentMode: 0
      - time: 6.85003471
        value: -.935377479
        inSlope: .183163822
        outSlope: .183163822
        tangentMode: 0
      - time: 7.50004339
        value: -.776883423
        inSlope: .245366991
        outSlope: .245366991
        tangentMode: 0
      - time: 8.05004883
        value: -.707106769
        inSlope: 0
        outSlope: 0
        tangentMode: 0
      - time: 8.88336945
        value: -.707106769
        inSlope: 0
        outSlope: 0
        tangentMode: 0
      - time: 9.71669006
        value: -.707106769
        inSlope: 0
        outSlope: 0
        tangentMode: 0
      - time: 10.5500107
        value: -.707106769
        inSlope: 0
        outSlope: 0
        tangentMode: 0
      - time: 11.3833313
        value: -.707106769
        inSlope: 0
        outSlope: 0
        tangentMode: 0
      - time: 12.2166519
        value: -.707106769
        inSlope: 0
        outSlope: 0
        tangentMode: 0
      - time: 13.0499725
        value: -.707106769
        inSlope: 0
        outSlope: 0
        tangentMode: 0
      - time: 13.8832932
        value: -.707106769
        inSlope: 0
        outSlope: 0
        tangentMode: 0
      - time: 14.7166138
        value: -.707106769
        inSlope: 0
        outSlope: 0
        tangentMode: 0
      - time: 15.5499344
        value: -.707106769
        inSlope: 0
        outSlope: 0
        tangentMode: 0
      - time: 16.383255
        value: -.707106769
        inSlope: 0
        outSlope: 0
        tangentMode: 0
      - time: 17.2165756
        value: -.707106769
        inSlope: 0
        outSlope: 0
        tangentMode: 0
      - time: 18.0498962
        value: -.707106769
        inSlope: 0
        outSlope: 0
        tangentMode: 0
      - time: 18.8832169
        value: -.707106769
        inSlope: 0
        outSlope: 0
        tangentMode: 0
      - time: 19.7165375
        value: -.707106769
        inSlope: 0
        outSlope: 0
        tangentMode: 0
      - time: 20.5498581
        value: -.707106769
        inSlope: 0
        outSlope: 0
        tangentMode: 0
      - time: 21.3831787
        value: -.707106769
        inSlope: 0
        outSlope: 0
        tangentMode: 0
      - time: 22.2164993
        value: -.707106769
        inSlope: 0
        outSlope: 0
        tangentMode: 0
      - time: 22.9831543
        value: -.706638455
        inSlope: .0280670635
        outSlope: .0280670635
        tangentMode: 0
      - time: 23.8164749
        value: -.446071416
        inSlope: .528507829
        outSlope: .528507829
        tangentMode: 0
      - time: 24.4164658
        value: -.126236722
        inSlope: .450722158
        outSlope: .450722158
        tangentMode: 0
      - time: 24.9664574
        value: 8.74227766e-08
        inSlope: 0
        outSlope: 0
        tangentMode: 0
      - time: 25.799778
        value: 8.74227766e-08
        inSlope: 0
        outSlope: 0
        tangentMode: 0
      - time: 26.6330986
        value: 8.74227766e-08
        inSlope: 0
        outSlope: 0
        tangentMode: 0
      - time: 27.4664192
        value: 8.74227766e-08
        inSlope: 0
        outSlope: 0
        tangentMode: 0
      - time: 28.2997398
        value: 8.74227766e-08
        inSlope: 0
        outSlope: 0
        tangentMode: 0
      - time: 28.9663963
        value: .000658599485
        inSlope: .0395470783
        outSlope: .0395470783
        tangentMode: 0
      - time: 29.7997169
        value: .317387104
        inSlope: .559951842
        outSlope: .559951842
        tangentMode: 0
      - time: 30.3997078
        value: .612154245
        inSlope: .359349966
        outSlope: .359349966
        tangentMode: 0
      - time: 30.9496994
        value: .707106709
        inSlope: 0
        outSlope: 0
        tangentMode: 0
      - time: 31.78302
        value: .707106709
        inSlope: 0
        outSlope: 0
        tangentMode: 0
      - time: 32.6163406
        value: .707106709
        inSlope: 0
        outSlope: 0
        tangentMode: 0
      - time: 33.4496613
        value: .707106709
        inSlope: 0
        outSlope: 0
        tangentMode: 0
      - time: 34.2829819
        value: .707106709
        inSlope: 0
        outSlope: 0
        tangentMode: 0
      - time: 35.1163025
        value: .707106709
        inSlope: 0
        outSlope: 0
        tangentMode: 0
      - time: 35.9496231
        value: .707106709
        inSlope: 0
        outSlope: 0
        tangentMode: 0
      - time: 36.7829437
        value: .707106709
        inSlope: 0
        outSlope: 0
        tangentMode: 0
      - time: 37.6162643
        value: .707106709
        inSlope: 0
        outSlope: 0
        tangentMode: 0
      - time: 38.449585
        value: .707106709
        inSlope: 0
        outSlope: 0
        tangentMode: 0
      - time: 39.2829056
        value: .707106709
        inSlope: 0
        outSlope: 0
        tangentMode: 0
      - time: 40.1162262
        value: .707106709
        inSlope: 0
        outSlope: 0
        tangentMode: 0
      - time: 40.9495468
        value: .707106709
        inSlope: 0
        outSlope: 0
        tangentMode: 0
      - time: 41.7828674
        value: .707106709
        inSlope: 0
        outSlope: 0
        tangentMode: 0
      - time: 42.616188
        value: .707106709
        inSlope: 0
        outSlope: 0
        tangentMode: 0
      - time: 43.4495087
        value: .707106709
        inSlope: 0
        outSlope: 0
        tangentMode: 0
      - time: 44.2828293
        value: .707106709
        inSlope: 0
        outSlope: 0
        tangentMode: 0
      - time: 45.1161499
        value: .707106709
        inSlope: 0
        outSlope: 0
        tangentMode: 0
      - time: 45.9494705
        value: .707106709
        inSlope: 0
        outSlope: 0
        tangentMode: 0
      - time: 46.7827911
        value: .707106709
        inSlope: 0
        outSlope: 0
        tangentMode: 0
      - time: 47.6161118
        value: .707106709
        inSlope: 0
        outSlope: 0
        tangentMode: 0
      - time: 48
        value: .707106709
        inSlope: 0
        outSlope: 0
        tangentMode: 0
      m_PreInfinity: 2
      m_PostInfinity: 2
    attribute: m_LocalRotation.y
    path: 
    classID: 4
    script: {fileID: 0}
  - curve:
      serializedVersion: 2
      m_Curve:
      - time: 0
        value: -0
        inSlope: 0
        outSlope: 0
        tangentMode: 0
      - time: .833333194
        value: -0
        inSlope: 0
        outSlope: 0
        tangentMode: 0
      - time: 1.44999933
        value: -0
        inSlope: 0
        outSlope: 0
        tangentMode: 0
      - time: 2.03333211
        value: -0
        inSlope: 0
        outSlope: 0
        tangentMode: 0
      - time: 2.86666465
        value: -0
        inSlope: 0
        outSlope: 0
        tangentMode: 0
      - time: 3.69999719
        value: -0
        inSlope: 0
        outSlope: 0
        tangentMode: 0
      - time: 4.51667023
        value: -0
        inSlope: 0
        outSlope: 0
        tangentMode: 0
      - time: 5.3333478
        value: -0
        inSlope: 0
        outSlope: 0
        tangentMode: 0
      - time: 6.03335714
        value: -0
        inSlope: 0
        outSlope: 0
        tangentMode: 0
      - time: 6.85003471
        value: -0
        inSlope: 0
        outSlope: 0
        tangentMode: 0
      - time: 7.50004339
        value: -0
        inSlope: 0
        outSlope: 0
        tangentMode: 0
      - time: 8.05004883
        value: -0
        inSlope: 0
        outSlope: 0
        tangentMode: 0
      - time: 8.88336945
        value: -0
        inSlope: 0
        outSlope: 0
        tangentMode: 0
      - time: 9.71669006
        value: -0
        inSlope: 0
        outSlope: 0
        tangentMode: 0
      - time: 10.5500107
        value: -0
        inSlope: 0
        outSlope: 0
        tangentMode: 0
      - time: 11.3833313
        value: -0
        inSlope: 0
        outSlope: 0
        tangentMode: 0
      - time: 12.2166519
        value: -0
        inSlope: 0
        outSlope: 0
        tangentMode: 0
      - time: 13.0499725
        value: -0
        inSlope: 0
        outSlope: 0
        tangentMode: 0
      - time: 13.8832932
        value: -0
        inSlope: 0
        outSlope: 0
        tangentMode: 0
      - time: 14.7166138
        value: -0
        inSlope: 0
        outSlope: 0
        tangentMode: 0
      - time: 15.5499344
        value: -0
        inSlope: 0
        outSlope: 0
        tangentMode: 0
      - time: 16.383255
        value: -0
        inSlope: 0
        outSlope: 0
        tangentMode: 0
      - time: 17.2165756
        value: -0
        inSlope: 0
        outSlope: 0
        tangentMode: 0
      - time: 18.0498962
        value: -0
        inSlope: 0
        outSlope: 0
        tangentMode: 0
      - time: 18.8832169
        value: -0
        inSlope: 0
        outSlope: 0
        tangentMode: 0
      - time: 19.7165375
        value: -0
        inSlope: 0
        outSlope: 0
        tangentMode: 0
      - time: 20.5498581
        value: -0
        inSlope: 0
        outSlope: 0
        tangentMode: 0
      - time: 21.3831787
        value: -0
        inSlope: 0
        outSlope: 0
        tangentMode: 0
      - time: 22.2164993
        value: -0
        inSlope: 0
        outSlope: 0
        tangentMode: 0
      - time: 22.9831543
        value: -0
        inSlope: 0
        outSlope: 0
        tangentMode: 0
      - time: 23.8164749
        value: -0
        inSlope: 0
        outSlope: 0
        tangentMode: 0
      - time: 24.4164658
        value: -0
        inSlope: 0
        outSlope: 0
        tangentMode: 0
      - time: 24.9664574
        value: -0
        inSlope: 0
        outSlope: 0
        tangentMode: 0
      - time: 25.799778
        value: -0
        inSlope: 0
        outSlope: 0
        tangentMode: 0
      - time: 26.6330986
        value: -0
        inSlope: 0
        outSlope: 0
        tangentMode: 0
      - time: 27.4664192
        value: -0
        inSlope: 0
        outSlope: 0
        tangentMode: 0
      - time: 28.2997398
        value: -0
        inSlope: 0
        outSlope: 0
        tangentMode: 0
      - time: 28.9663963
        value: -0
        inSlope: 0
        outSlope: 0
        tangentMode: 0
      - time: 29.7997169
        value: -0
        inSlope: 0
        outSlope: 0
        tangentMode: 0
      - time: 30.3997078
        value: -0
        inSlope: 0
        outSlope: 0
        tangentMode: 0
      - time: 30.9496994
        value: -0
        inSlope: 0
        outSlope: 0
        tangentMode: 0
      - time: 31.78302
        value: -0
        inSlope: 0
        outSlope: 0
        tangentMode: 0
      - time: 32.6163406
        value: -0
        inSlope: 0
        outSlope: 0
        tangentMode: 0
      - time: 33.4496613
        value: -0
        inSlope: 0
        outSlope: 0
        tangentMode: 0
      - time: 34.2829819
        value: -0
        inSlope: 0
        outSlope: 0
        tangentMode: 0
      - time: 35.1163025
        value: -0
        inSlope: 0
        outSlope: 0
        tangentMode: 0
      - time: 35.9496231
        value: -0
        inSlope: 0
        outSlope: 0
        tangentMode: 0
      - time: 36.7829437
        value: -0
        inSlope: 0
        outSlope: 0
        tangentMode: 0
      - time: 37.6162643
        value: -0
        inSlope: 0
        outSlope: 0
        tangentMode: 0
      - time: 38.449585
        value: -0
        inSlope: 0
        outSlope: 0
        tangentMode: 0
      - time: 39.2829056
        value: -0
        inSlope: 0
        outSlope: 0
        tangentMode: 0
      - time: 40.1162262
        value: -0
        inSlope: 0
        outSlope: 0
        tangentMode: 0
      - time: 40.9495468
        value: -0
        inSlope: 0
        outSlope: 0
        tangentMode: 0
      - time: 41.7828674
        value: -0
        inSlope: 0
        outSlope: 0
        tangentMode: 0
      - time: 42.616188
        value: -0
        inSlope: 0
        outSlope: 0
        tangentMode: 0
      - time: 43.4495087
        value: -0
        inSlope: 0
        outSlope: 0
        tangentMode: 0
      - time: 44.2828293
        value: -0
        inSlope: 0
        outSlope: 0
        tangentMode: 0
      - time: 45.1161499
        value: -0
        inSlope: 0
        outSlope: 0
        tangentMode: 0
      - time: 45.9494705
        value: -0
        inSlope: 0
        outSlope: 0
        tangentMode: 0
      - time: 46.7827911
        value: -0
        inSlope: 0
        outSlope: 0
        tangentMode: 0
      - time: 47.6161118
        value: -0
        inSlope: 0
        outSlope: 0
        tangentMode: 0
      - time: 48
        value: -0
        inSlope: 0
        outSlope: 0
        tangentMode: 0
      m_PreInfinity: 2
      m_PostInfinity: 2
    attribute: m_LocalRotation.z
    path: 
    classID: 4
    script: {fileID: 0}
  - curve:
      serializedVersion: 2
      m_Curve:
      - time: 0
        value: -.707106769
        inSlope: .00690579368
        outSlope: .00690579368
        tangentMode: 0
      - time: .833333194
        value: -.470594943
        inSlope: .505259812
        outSlope: .505259812
        tangentMode: 0
      - time: 1.44999933
        value: -.14500688
        inSlope: .464741886
        outSlope: .464741886
        tangentMode: 0
      - time: 2.03333211
        value: 1.78058963e-05
        inSlope: .00106573198
        outSlope: .00106573198
        tangentMode: 0
      - time: 2.86666465
        value: .0103977676
        inSlope: .0219715033
        outSlope: .0219715033
        tangentMode: 0
      - time: 3.69999719
        value: .0335063636
        inSlope: .0316144451
        outSlope: .0316144451
        tangentMode: 0
      - time: 4.51667023
        value: .0594614707
        inSlope: .0301477388
        outSlope: .0301477388
        tangentMode: 0
      - time: 5.3333478
        value: .0798197165
        inSlope: .0179169178
        outSlope: .0179169178
        tangentMode: 0
      - time: 6.03335714
        value: .086774081
        inSlope: .0347898006
        outSlope: .0347898006
        tangentMode: 0
      - time: 6.85003471
        value: .353650868
        inSlope: .484421045
        outSlope: .484421045
        tangentMode: 0
      - time: 7.50004339
        value: .629644513
        inSlope: .302792311
        outSlope: .302792311
        tangentMode: 0
      - time: 8.05004883
        value: .707106769
        inSlope: 0
        outSlope: 0
        tangentMode: 0
      - time: 8.88336945
        value: .707106769
        inSlope: 0
        outSlope: 0
        tangentMode: 0
      - time: 9.71669006
        value: .707106769
        inSlope: 0
        outSlope: 0
        tangentMode: 0
      - time: 10.5500107
        value: .707106769
        inSlope: 0
        outSlope: 0
        tangentMode: 0
      - time: 11.3833313
        value: .707106769
        inSlope: 0
        outSlope: 0
        tangentMode: 0
      - time: 12.2166519
        value: .707106769
        inSlope: 0
        outSlope: 0
        tangentMode: 0
      - time: 13.0499725
        value: .707106769
        inSlope: 0
        outSlope: 0
        tangentMode: 0
      - time: 13.8832932
        value: .707106769
        inSlope: 0
        outSlope: 0
        tangentMode: 0
      - time: 14.7166138
        value: .707106769
        inSlope: 0
        outSlope: 0
        tangentMode: 0
      - time: 15.5499344
        value: .707106769
        inSlope: 0
        outSlope: 0
        tangentMode: 0
      - time: 16.383255
        value: .707106769
        inSlope: 0
        outSlope: 0
        tangentMode: 0
      - time: 17.2165756
        value: .707106769
        inSlope: 0
        outSlope: 0
        tangentMode: 0
      - time: 18.0498962
        value: .707106769
        inSlope: 0
        outSlope: 0
        tangentMode: 0
      - time: 18.8832169
        value: .707106769
        inSlope: 0
        outSlope: 0
        tangentMode: 0
      - time: 19.7165375
        value: .707106769
        inSlope: 0
        outSlope: 0
        tangentMode: 0
      - time: 20.5498581
        value: .707106769
        inSlope: 0
        outSlope: 0
        tangentMode: 0
      - time: 21.3831787
        value: .707106769
        inSlope: 0
        outSlope: 0
        tangentMode: 0
      - time: 22.2164993
        value: .707106769
        inSlope: 0
        outSlope: 0
        tangentMode: 0
      - time: 22.9831543
        value: .707574785
        inSlope: .0280205719
        outSlope: .0280205719
        tangentMode: 0
      - time: 23.8164749
        value: .894997358
        inSlope: .263398737
        outSlope: .263398737
        tangentMode: 0
      - time: 24.4164658
        value: .992000163
        inSlope: .0573947877
        outSlope: .0573947877
        tangentMode: 0
      - time: 24.9664574
        value: 1
        inSlope: 0
        outSlope: 0
        tangentMode: 0
      - time: 25.799778
        value: 1
        inSlope: 0
        outSlope: 0
        tangentMode: 0
      - time: 26.6330986
        value: 1
        inSlope: 0
        outSlope: 0
        tangentMode: 0
      - time: 27.4664192
        value: 1
        inSlope: 0
        outSlope: 0
        tangentMode: 0
      - time: 28.2997398
        value: 1
        inSlope: 0
        outSlope: 0
        tangentMode: 0
      - time: 28.9663963
        value: .999999762
        inSlope: -3.21869993e-05
        outSlope: -3.21869993e-05
        tangentMode: 0
      - time: 29.7997169
        value: .94829607
        inSlope: -.18742311
        outSlope: -.18742311
        tangentMode: 0
      - time: 30.3997078
        value: .790738344
        inSlope: -.278143942
        outSlope: -.278143942
        tangentMode: 0
      - time: 30.9496994
        value: .707106829
        inSlope: 0
        outSlope: 0
        tangentMode: 0
      - time: 31.78302
        value: .707106829
        inSlope: 0
        outSlope: 0
        tangentMode: 0
      - time: 32.6163406
        value: .707106829
        inSlope: 0
        outSlope: 0
        tangentMode: 0
      - time: 33.4496613
        value: .707106829
        inSlope: 0
        outSlope: 0
        tangentMode: 0
      - time: 34.2829819
        value: .707106829
        inSlope: 0
        outSlope: 0
        tangentMode: 0
      - time: 35.1163025
        value: .707106829
        inSlope: 0
        outSlope: 0
        tangentMode: 0
      - time: 35.9496231
        value: .707106829
        inSlope: 0
        outSlope: 0
        tangentMode: 0
      - time: 36.7829437
        value: .707106829
        inSlope: 0
        outSlope: 0
        tangentMode: 0
      - time: 37.6162643
        value: .707106829
        inSlope: 0
        outSlope: 0
        tangentMode: 0
      - time: 38.449585
        value: .707106829
        inSlope: 0
        outSlope: 0
        tangentMode: 0
      - time: 39.2829056
        value: .707106829
        inSlope: 0
        outSlope: 0
        tangentMode: 0
      - time: 40.1162262
        value: .707106829
        inSlope: 0
        outSlope: 0
        tangentMode: 0
      - time: 40.9495468
        value: .707106829
        inSlope: 0
        outSlope: 0
        tangentMode: 0
      - time: 41.7828674
        value: .707106829
        inSlope: 0
        outSlope: 0
        tangentMode: 0
      - time: 42.616188
        value: .707106829
        inSlope: 0
        outSlope: 0
        tangentMode: 0
      - time: 43.4495087
        value: .707106829
        inSlope: 0
        outSlope: 0
        tangentMode: 0
      - time: 44.2828293
        value: .707106829
        inSlope: 0
        outSlope: 0
        tangentMode: 0
      - time: 45.1161499
        value: .707106829
        inSlope: 0
        outSlope: 0
        tangentMode: 0
      - time: 45.9494705
        value: .707106829
        inSlope: 0
        outSlope: 0
        tangentMode: 0
      - time: 46.7827911
        value: .707106829
        inSlope: 0
        outSlope: 0
        tangentMode: 0
      - time: 47.6161118
        value: .707106829
        inSlope: 0
        outSlope: 0
        tangentMode: 0
      - time: 48
        value: .707106829
        inSlope: 0
        outSlope: 0
        tangentMode: 0
      m_PreInfinity: 2
      m_PostInfinity: 2
    attribute: m_LocalRotation.w
    path: 
    classID: 4
    script: {fileID: 0}
  m_EulerEditorCurves:
  - curve:
      serializedVersion: 2
      m_Curve:
      - time: 0
        value: 0
        inSlope: 0
        outSlope: 0
        tangentMode: 10
      - time: 2
        value: 0
        inSlope: 0
        outSlope: 0
        tangentMode: 10
      - time: 6
        value: 0
        inSlope: 0
        outSlope: 0
        tangentMode: 10
      - time: 7.98333311
        value: 0
        inSlope: 0
        outSlope: 0
        tangentMode: 10
      - time: 15.2833338
        value: 0
        inSlope: 0
        outSlope: 0
        tangentMode: 10
      - time: 16.833334
        value: 0
        inSlope: 0
        outSlope: 0
        tangentMode: 10
      - time: 22.9499989
        value: 0
        inSlope: 0
        outSlope: 0
        tangentMode: 10
      - time: 24.916666
        value: 0
        inSlope: 0
        outSlope: 0
        tangentMode: 10
      - time: 28.9333324
        value: 0
        inSlope: 0
        outSlope: 0
        tangentMode: 10
      - time: 30.8999996
        value: 0
        inSlope: 0
        outSlope: 0
        tangentMode: 10
      - time: 48
        value: 0
        inSlope: 0
        outSlope: 0
        tangentMode: 10
      m_PreInfinity: 2
      m_PostInfinity: 2
    attribute: localEulerAnglesBaked.x
    path: 
    classID: 4
    script: {fileID: 0}
  - curve:
      serializedVersion: 2
      m_Curve:
      - time: 0
        value: 90
        inSlope: 0
        outSlope: 0
        tangentMode: 0
      - time: 2
        value: 180
        inSlope: 0
        outSlope: 0
        tangentMode: 0
      - time: 6
        value: 189.888885
        inSlope: 0
        outSlope: 0
        tangentMode: 0
      - time: 7.98333311
        value: 270
        inSlope: 0
        outSlope: 0
        tangentMode: 0
      - time: 15.2833338
        value: 270
        inSlope: 0
        outSlope: 0
        tangentMode: 0
      - time: 16.833334
        value: 270
        inSlope: 0
        outSlope: 0
        tangentMode: 0
      - time: 22.9499989
        value: 270
        inSlope: 0
        outSlope: 0
        tangentMode: 0
      - time: 24.916666
        value: 360
        inSlope: 0
        outSlope: 0
        tangentMode: 0
      - time: 28.9333324
        value: 360
        inSlope: 0
        outSlope: 0
        tangentMode: 0
      - time: 30.8999996
        value: 450
        inSlope: 0
        outSlope: 0
        tangentMode: 0
      - time: 48
        value: 450
        inSlope: 0
        outSlope: 0
        tangentMode: 0
      m_PreInfinity: 2
      m_PostInfinity: 2
    attribute: localEulerAnglesBaked.y
    path: 
    classID: 4
    script: {fileID: 0}
  - curve:
      serializedVersion: 2
      m_Curve:
      - time: 0
        value: 0
        inSlope: 0
        outSlope: 0
        tangentMode: 10
      - time: 2
        value: 0
        inSlope: 0
        outSlope: 0
        tangentMode: 10
      - time: 6
        value: 0
        inSlope: 0
        outSlope: 0
        tangentMode: 10
      - time: 7.98333311
        value: 0
        inSlope: 0
        outSlope: 0
        tangentMode: 10
      - time: 15.2833338
        value: 0
        inSlope: 0
        outSlope: 0
        tangentMode: 10
      - time: 16.833334
        value: 0
        inSlope: 0
        outSlope: 0
        tangentMode: 10
      - time: 22.9499989
        value: 0
        inSlope: 0
        outSlope: 0
        tangentMode: 10
      - time: 24.916666
        value: 0
        inSlope: 0
        outSlope: 0
        tangentMode: 10
      - time: 28.9333324
        value: 0
        inSlope: 0
        outSlope: 0
        tangentMode: 10
      - time: 30.8999996
        value: 0
        inSlope: 0
        outSlope: 0
        tangentMode: 10
      - time: 48
        value: 0
        inSlope: 0
        outSlope: 0
        tangentMode: 10
      m_PreInfinity: 2
      m_PostInfinity: 2
    attribute: localEulerAnglesBaked.z
    path: 
    classID: 4
    script: {fileID: 0}
  m_Events: []
