%YAML 1.1
%TAG !u! tag:unity3d.com,2011:
--- !u!74 &7400000
AnimationClip:
  m_ObjectHideFlags: 0
  m_PrefabParentObject: {fileID: 0}
  m_PrefabInternal: {fileID: 0}
  m_Name: Car6
  serializedVersion: 4
  m_AnimationType: 1
  m_Compressed: 0
  m_UseHighQualityCurve: 1
  m_RotationCurves:
  - curve:
      serializedVersion: 2
      m_Curve:
      - time: 0
        value: {x: -0, y: -.707106769, z: -0, w: .707106769}
        inSlope: {x: 0, y: 0, z: 0, w: 0}
        outSlope: {x: 0, y: 0, z: 0, w: 0}
        tangentMode: -559038737
      - time: .833333194
        value: {x: -0, y: -.707106769, z: -0, w: .707106769}
        inSlope: {x: 0, y: 0, z: 0, w: 0}
        outSlope: {x: 0, y: 0, z: 0, w: 0}
        tangentMode: -559038737
      - time: 1.66666579
        value: {x: -0, y: -.707106769, z: -0, w: .707106769}
        inSlope: {x: 0, y: 0, z: 0, w: 0}
        outSlope: {x: 0, y: 0, z: 0, w: 0}
        tangentMode: -559038737
      - time: 2.49999833
        value: {x: -0, y: -.707106769, z: -0, w: .707106769}
        inSlope: {x: 0, y: 0, z: 0, w: 0}
        outSlope: {x: 0, y: 0, z: 0, w: 0}
        tangentMode: -559038737
      - time: 2.74999809
        value: {x: -0, y: -.663535118, z: -0, w: .748145103}
        inSlope: {x: 0, y: .457413614, z: 0, w: .405382305}
        outSlope: {x: 0, y: .457413614, z: 0, w: .405382305}
        tangentMode: -559038737
      - time: 3.09999776
        value: {x: -0, y: -.391043216, z: -0, w: .920372307}
        inSlope: {x: 0, y: 1.000278, z: 0, w: .424982131}
        outSlope: {x: 0, y: 1.000278, z: 0, w: .424982131}
        tangentMode: -559038737
      - time: 3.44999743
        value: {x: -0, y: -.0703665093, z: -0, w: .997521222}
        inSlope: {x: 0, y: .652822375, z: 0, w: .0462806672}
        outSlope: {x: 0, y: .652822375, z: 0, w: .0462806672}
        tangentMode: -559038737
      - time: 3.69999719
        value: {x: -0, y: 8.74227766e-08, z: -0, w: 1}
        inSlope: {x: 0, y: 0, z: 0, w: 0}
        outSlope: {x: 0, y: 0, z: 0, w: 0}
        tangentMode: -559038737
      - time: 4.51667023
        value: {x: -0, y: 8.74227766e-08, z: -0, w: 1}
        inSlope: {x: 0, y: 0, z: 0, w: 0}
        outSlope: {x: 0, y: 0, z: 0, w: 0}
        tangentMode: -559038737
      - time: 5.3333478
        value: {x: -0, y: 8.74227766e-08, z: -0, w: 1}
        inSlope: {x: 0, y: 0, z: 0, w: 0}
        outSlope: {x: 0, y: 0, z: 0, w: 0}
        tangentMode: -559038737
      - time: 6.15002537
        value: {x: -0, y: 8.74227766e-08, z: -0, w: 1}
        inSlope: {x: 0, y: 0, z: 0, w: 0}
        outSlope: {x: 0, y: 0, z: 0, w: 0}
        tangentMode: -559038737
      - time: 6.66669893
        value: {x: -0, y: 8.74227766e-08, z: -0, w: 1}
        inSlope: {x: 0, y: .0182602331, z: 0, w: -5.36434663e-06}
        outSlope: {x: 0, y: .0182602331, z: 0, w: -5.36434663e-06}
        tangentMode: -559038737
      - time: 7.13337183
        value: {x: -0, y: .329634219, z: -0, w: .944108725}
        inSlope: {x: 0, y: 1.06584287, z: 0, w: -.372208744}
        outSlope: {x: 0, y: 1.06584287, z: 0, w: -.372208744}
        tangentMode: -559038737
      - time: 7.45004272
        value: {x: -0, y: .620800912, z: -0, w: .78396827}
        inSlope: {x: 0, y: .65545696, z: 0, w: -.518700123}
        outSlope: {x: 0, y: .65545696, z: 0, w: -.518700123}
        tangentMode: -559038737
      - time: 7.71671295
        value: {x: -0, y: .707106709, z: -0, w: .707106829}
        inSlope: {x: 0, y: 0, z: 0, w: 0}
        outSlope: {x: 0, y: 0, z: 0, w: 0}
        tangentMode: -559038737
      - time: 8.5500412
        value: {x: -0, y: .707106709, z: -0, w: .707106829}
        inSlope: {x: 0, y: 0, z: 0, w: 0}
        outSlope: {x: 0, y: 0, z: 0, w: 0}
        tangentMode: -559038737
      - time: 9.38336182
        value: {x: -0, y: .707106709, z: -0, w: .707106829}
        inSlope: {x: 0, y: 0, z: 0, w: 0}
        outSlope: {x: 0, y: 0, z: 0, w: 0}
        tangentMode: -559038737
      - time: 10.2166824
        value: {x: -0, y: .707106709, z: -0, w: .707106829}
        inSlope: {x: 0, y: 0, z: 0, w: 0}
        outSlope: {x: 0, y: 0, z: 0, w: 0}
        tangentMode: -559038737
      - time: 11.0333366
        value: {x: -0, y: .707106709, z: -0, w: .707106829}
        inSlope: {x: 0, y: .0132878665, z: 0, w: -.013295019}
        outSlope: {x: 0, y: .0132878665, z: 0, w: -.013295019}
        tangentMode: -559038737
      - time: 11.4833298
        value: {x: -0, y: .896052301, z: -0, w: .443948567}
        inSlope: {x: 0, y: .507383347, z: 0, w: -1.02427435}
        outSlope: {x: 0, y: .507383347, z: 0, w: -1.02427435}
        tangentMode: -559038737
      - time: 11.7833252
        value: {x: -0, y: .991066992, z: -0, w: .133364767}
        inSlope: {x: 0, y: .119821474, z: 0, w: -.888394952}
        outSlope: {x: 0, y: .119821474, z: 0, w: -.888394952}
        tangentMode: -559038737
      - time: 12.0666542
        value: {x: -0, y: 1, z: -0, w: -1.19248806e-08}
        inSlope: {x: 0, y: 0, z: 0, w: 0}
        outSlope: {x: 0, y: 0, z: 0, w: 0}
        tangentMode: -559038737
      - time: 12.8999748
        value: {x: -0, y: 1, z: -0, w: -1.19248806e-08}
        inSlope: {x: 0, y: 0, z: 0, w: 0}
        outSlope: {x: 0, y: 0, z: 0, w: 0}
        tangentMode: -559038737
      - time: 13.7332954
        value: {x: -0, y: 1, z: -0, w: -1.19248806e-08}
        inSlope: {x: 0, y: 0, z: 0, w: 0}
        outSlope: {x: 0, y: 0, z: 0, w: 0}
        tangentMode: -559038737
      - time: 14.5666161
        value: {x: -0, y: 1, z: -0, w: -1.19248806e-08}
        inSlope: {x: 0, y: 0, z: 0, w: 0}
        outSlope: {x: 0, y: 0, z: 0, w: 0}
        tangentMode: -559038737
      - time: 15.3999367
        value: {x: -0, y: 1, z: -0, w: -1.19248806e-08}
        inSlope: {x: 0, y: 0, z: 0, w: 0}
        outSlope: {x: 0, y: 0, z: 0, w: 0}
        tangentMode: -559038737
      - time: 15.9665947
        value: {x: -0, y: 1, z: -0, w: -1.19248806e-08}
        inSlope: {x: 0, y: -5.36449988e-06, z: 0, w: -.0186255425}
        outSlope: {x: 0, y: -5.36449988e-06, z: 0, w: -.0186255425}
        tangentMode: -559038737
      - time: 16.4165878
        value: {x: -0, y: .947551787, z: -0, w: -.319602311}
        inSlope: {x: 0, y: -.365379661, z: 0, w: -1.08300948}
        outSlope: {x: 0, y: -.365379661, z: 0, w: -1.08300948}
        tangentMode: -559038737
      - time: 16.7165833
        value: {x: -0, y: .795134783, z: -0, w: -.606432736}
        inSlope: {x: 0, y: -.543518662, z: 0, w: -.71309042}
        outSlope: {x: 0, y: -.543518662, z: 0, w: -.71309042}
        tangentMode: -559038737
      - time: 16.9999123
        value: {x: -0, y: .707106888, z: -0, w: -.70710665}
        inSlope: {x: 0, y: 0, z: 0, w: 0}
        outSlope: {x: 0, y: 0, z: 0, w: 0}
        tangentMode: -559038737
      - time: 17.8332329
        value: {x: -0, y: .707106888, z: -0, w: -.70710665}
        inSlope: {x: 0, y: 0, z: 0, w: 0}
        outSlope: {x: 0, y: 0, z: 0, w: 0}
        tangentMode: -559038737
      - time: 18.6665535
        value: {x: -0, y: .707106888, z: -0, w: -.70710665}
        inSlope: {x: 0, y: 0, z: 0, w: 0}
        outSlope: {x: 0, y: 0, z: 0, w: 0}
        tangentMode: -559038737
      - time: 19.1832123
        value: {x: -0, y: .707106888, z: -0, w: -.70710665}
        inSlope: {x: 0, y: -.0135382097, z: 0, w: -.0135310572}
        outSlope: {x: 0, y: -.0135382097, z: 0, w: -.0135310572}
        tangentMode: -559038737
      - time: 19.6332054
        value: {x: -0, y: .436366141, z: -0, w: -.899769187}
        inSlope: {x: 0, y: -1.04894304, z: 0, w: -.508626103}
        outSlope: {x: 0, y: -1.04894304, z: 0, w: -.508626103}
        tangentMode: -559038737
      - time: 19.9332008
        value: {x: -0, y: .122525848, z: -0, w: -.992465317}
        inSlope: {x: 0, y: -.876716614, z: 0, w: -.108527407}
        outSlope: {x: 0, y: -.876716614, z: 0, w: -.108527407}
        tangentMode: -559038737
      - time: 20.1998634
        value: {x: -0, y: -1.74845553e-07, z: -0, w: -1}
        inSlope: {x: 0, y: 0, z: 0, w: 0}
        outSlope: {x: 0, y: 0, z: 0, w: 0}
        tangentMode: -559038737
      - time: 21.0331841
        value: {x: -0, y: -1.74845553e-07, z: -0, w: -1}
        inSlope: {x: 0, y: 0, z: 0, w: 0}
        outSlope: {x: 0, y: 0, z: 0, w: 0}
        tangentMode: -559038737
      - time: 21.8665047
        value: {x: -0, y: -1.74845553e-07, z: -0, w: -1}
        inSlope: {x: 0, y: 0, z: 0, w: 0}
        outSlope: {x: 0, y: 0, z: 0, w: 0}
        tangentMode: -559038737
      - time: 22.6998253
        value: {x: -0, y: -1.74845553e-07, z: -0, w: -1}
        inSlope: {x: 0, y: 0, z: 0, w: 0}
        outSlope: {x: 0, y: 0, z: 0, w: 0}
        tangentMode: -559038737
      - time: 22.9831543
        value: {x: -0, y: .0565663725, z: -0, w: -.99839884}
        inSlope: {x: 0, y: .530547738, z: 0, w: .0302182287}
        outSlope: {x: 0, y: .530547738, z: 0, w: .0302182287}
        tangentMode: -559038737
      - time: 23.3831482
        value: {x: -0, y: .375050455, z: -0, w: -.927004397}
        inSlope: {x: 0, y: .897165179, z: 0, w: .362983525}
        outSlope: {x: 0, y: .897165179, z: 0, w: .362983525}
        tangentMode: -559038737
      - time: 23.7664757
        value: {x: -0, y: .651608348, z: -0, w: -.758555591}
        inSlope: {x: 0, y: .455585539, z: 0, w: .391138196}
        outSlope: {x: 0, y: .455585539, z: 0, w: .391138196}
        tangentMode: -559038737
      - time: 24
        value: {x: -0, y: .707106888, z: -0, w: -.70710665}
        inSlope: {x: 0, y: .0188207012, z: 0, w: .0188136306}
        outSlope: {x: 0, y: .0188207012, z: 0, w: .0188136306}
        tangentMode: -559038737
      m_PreInfinity: 2
      m_PostInfinity: 2
    path: 
  m_CompressedRotationCurves: []
  m_PositionCurves:
  - curve:
      serializedVersion: 2
      m_Curve:
      - time: 0
        value: {x: 280.67514, y: .314827442, z: 310.645416}
        inSlope: {x: -9.61316204, y: 0, z: 0}
        outSlope: {x: -9.61316204, y: 0, z: 0}
        tangentMode: -559038737
      - time: 2.56666827
        value: {x: 256.001343, y: .314827442, z: 310.598999}
        inSlope: {x: -6.86932087, y: 0, z: 0}
        outSlope: {x: -6.86932087, y: 0, z: 0}
        tangentMode: -559038737
      - time: 3.65000129
        value: {x: 251.532074, y: .314827442, z: 315.413513}
        inSlope: {x: 0, y: 0, z: 6.3184185}
        outSlope: {x: 0, y: 0, z: 6.3184185}
        tangentMode: -559038737
      - time: 6.66666651
        value: {x: 251.532074, y: .314827442, z: 340.128052}
        inSlope: {x: 0, y: 0, z: 5.70984888}
        outSlope: {x: 0, y: 0, z: 5.70984888}
        tangentMode: -559038737
      - time: 7.69999933
        value: {x: 256.150024, y: .314827442, z: 343.462646}
        inSlope: {x: 11.2837782, y: 0, z: 0}
        outSlope: {x: 11.2837782, y: 0, z: 0}
        tangentMode: -559038737
      - time: 11.0333319
        value: {x: 316.478577, y: .314827442, z: 343.462646}
        inSlope: {x: 10.9932203, y: 0, z: 0}
        outSlope: {x: 10.9932203, y: 0, z: 0}
        tangentMode: -559038737
      - time: 12.0499983
        value: {x: 320.431244, y: .314827442, z: 339.033539}
        inSlope: {x: 0, y: 0, z: -6.449018}
        outSlope: {x: 0, y: 0, z: -6.449018}
        tangentMode: -559038737
      - time: 15.9666662
        value: {x: 320.431244, y: .314827442, z: 278.978149}
        inSlope: {x: 0, y: 0, z: -9.92687225}
        outSlope: {x: 0, y: 0, z: -9.92687225}
        tangentMode: -559038737
      - time: 16.9833317
        value: {x: 315.653046, y: .314827442, z: 274.382355}
        inSlope: {x: -7.71270561, y: 0, z: 0}
        outSlope: {x: -7.71270561, y: 0, z: 0}
        tangentMode: -559038737
      - time: 19.1833324
        value: {x: 292.056854, y: .314827442, z: 274.382355}
        inSlope: {x: -7.63857603, y: 0, z: 0}
        outSlope: {x: -7.63857603, y: 0, z: 0}
        tangentMode: -559038737
      - time: 20.1833305
        value: {x: 287.505249, y: .314827442, z: 279.777863}
        inSlope: {x: 0, y: 0, z: 7.34413862}
        outSlope: {x: 0, y: 0, z: 7.34413862}
        tangentMode: -559038737
      - time: 22.7833328
        value: {x: 287.522552, y: .314827442, z: 303.939056}
        inSlope: {x: 0, y: 0, z: 7.40241671}
        outSlope: {x: 0, y: 0, z: 7.40241671}
        tangentMode: -559038737
      - time: 24
        value: {x: 280.67511, y: .314827442, z: 310.645416}
        inSlope: {x: -5.62803268, y: 0, z: 0}
        outSlope: {x: -5.62803268, y: 0, z: 0}
        tangentMode: -559038737
      m_PreInfinity: 2
      m_PostInfinity: 2
    path: 
  m_ScaleCurves:
  - curve:
      serializedVersion: 2
      m_Curve:
      - time: 0
        value: {x: 1, y: 1, z: 1}
        inSlope: {x: 0, y: 0, z: 0}
        outSlope: {x: 0, y: 0, z: 0}
        tangentMode: -559038737
      - time: 2.56666827
        value: {x: 1, y: 1, z: 1}
        inSlope: {x: 0, y: 0, z: 0}
        outSlope: {x: 0, y: 0, z: 0}
        tangentMode: -559038737
      - time: 6.66666651
        value: {x: 1, y: 1, z: 1}
        inSlope: {x: 0, y: 0, z: 0}
        outSlope: {x: 0, y: 0, z: 0}
        tangentMode: -559038737
      - time: 7.69999933
        value: {x: 1, y: 1, z: 1}
        inSlope: {x: 0, y: 0, z: 0}
        outSlope: {x: 0, y: 0, z: 0}
        tangentMode: -559038737
      - time: 11.0333319
        value: {x: 1, y: 1, z: 1}
        inSlope: {x: 0, y: 0, z: 0}
        outSlope: {x: 0, y: 0, z: 0}
        tangentMode: -559038737
      - time: 12.0499983
        value: {x: 1, y: 1, z: 1}
        inSlope: {x: 0, y: 0, z: 0}
        outSlope: {x: 0, y: 0, z: 0}
        tangentMode: -559038737
      - time: 19.1833324
        value: {x: 1, y: 1, z: 1}
        inSlope: {x: 0, y: 0, z: 0}
        outSlope: {x: 0, y: 0, z: 0}
        tangentMode: -559038737
      - time: 22.7833328
        value: {x: 1, y: 1, z: 1}
        inSlope: {x: 0, y: 0, z: 0}
        outSlope: {x: 0, y: 0, z: 0}
        tangentMode: -559038737
      - time: 24
        value: {x: 1, y: 1, z: 1}
        inSlope: {x: 0, y: 0, z: 0}
        outSlope: {x: 0, y: 0, z: 0}
        tangentMode: -559038737
      m_PreInfinity: 2
      m_PostInfinity: 2
    path: 
  m_FloatCurves: []
  m_PPtrCurves: []
  m_SampleRate: 60
  m_WrapMode: 2
  m_Bounds:
    m_Center: {x: 0, y: 0, z: 0}
    m_Extent: {x: 0, y: 0, z: 0}
  m_ClipBindingConstant:
    genericBindings: []
    pptrCurveMapping: []
  m_AnimationClipSettings:
    serializedVersion: 2
    m_StartTime: 0
    m_StopTime: 1
    m_OrientationOffsetY: 0
    m_Level: 0
    m_CycleOffset: 0
    m_LoopTime: 0
    m_LoopBlend: 0
    m_LoopBlendOrientation: 0
    m_LoopBlendPositionY: 0
    m_LoopBlendPositionXZ: 0
    m_KeepOriginalOrientation: 0
    m_KeepOriginalPositionY: 1
    m_KeepOriginalPositionXZ: 0
    m_HeightFromFeet: 0
    m_Mirror: 0
  m_EditorCurves:
  - curve:
      serializedVersion: 2
      m_Curve:
      - time: 0
        value: 280.67514
        inSlope: -9.61316204
        outSlope: -9.61316204
        tangentMode: 10
      - time: 2.56666827
        value: 256.001343
        inSlope: -6.86932087
        outSlope: -6.86932087
        tangentMode: 10
      - time: 3.65000129
        value: 251.532074
        inSlope: 0
        outSlope: 0
        tangentMode: 0
      - time: 6.66666651
        value: 251.532074
        inSlope: 0
        outSlope: 0
        tangentMode: 0
      - time: 7.69999933
        value: 256.150024
        inSlope: 11.2837782
        outSlope: 11.2837782
        tangentMode: 10
      - time: 11.0333319
        value: 316.478577
        inSlope: 10.9932203
        outSlope: 10.9932203
        tangentMode: 10
      - time: 12.0499983
        value: 320.431244
        inSlope: 0
        outSlope: 0
        tangentMode: 0
      - time: 15.9666662
        value: 320.431244
        inSlope: 0
        outSlope: 0
        tangentMode: 0
      - time: 16.9833317
        value: 315.653046
        inSlope: -7.71270561
        outSlope: -7.71270561
        tangentMode: 10
      - time: 19.1833324
        value: 292.056854
        inSlope: -7.63857603
        outSlope: -7.63857603
        tangentMode: 10
      - time: 20.1833305
        value: 287.505249
        inSlope: 0
        outSlope: 0
        tangentMode: 0
      - time: 22.7833328
        value: 287.522552
        inSlope: 0
        outSlope: 0
        tangentMode: 0
      - time: 24
        value: 280.67511
        inSlope: -5.62803268
        outSlope: -5.62803268
        tangentMode: 10
      m_PreInfinity: 2
      m_PostInfinity: 2
    attribute: m_LocalPosition.x
    path: 
    classID: 4
    script: {fileID: 0}
  - curve:
      serializedVersion: 2
      m_Curve:
      - time: 0
        value: .314827442
        inSlope: 0
        outSlope: 0
        tangentMode: 10
      - time: 2.56666827
        value: .314827442
        inSlope: 0
        outSlope: 0
        tangentMode: 10
      - time: 3.65000129
        value: .314827442
        inSlope: 0
        outSlope: 0
        tangentMode: 10
      - time: 6.66666651
        value: .314827442
        inSlope: 0
        outSlope: 0
        tangentMode: 10
      - time: 7.69999933
        value: .314827442
        inSlope: 0
        outSlope: 0
        tangentMode: 10
      - time: 11.0333319
        value: .314827442
        inSlope: 0
        outSlope: 0
        tangentMode: 10
      - time: 12.0499983
        value: .314827442
        inSlope: 0
        outSlope: 0
        tangentMode: 10
      - time: 15.9666662
        value: .314827442
        inSlope: 0
        outSlope: 0
        tangentMode: 10
      - time: 16.9833317
        value: .314827442
        inSlope: 0
        outSlope: 0
        tangentMode: 10
      - time: 19.1833324
        value: .314827442
        inSlope: 0
        outSlope: 0
        tangentMode: 10
      - time: 20.1833305
        value: .314827442
        inSlope: 0
        outSlope: 0
        tangentMode: 10
      - time: 22.7833328
        value: .314827442
        inSlope: 0
        outSlope: 0
        tangentMode: 10
      - time: 24
        value: .314827442
        inSlope: 0
        outSlope: 0
        tangentMode: 10
      m_PreInfinity: 2
      m_PostInfinity: 2
    attribute: m_LocalPosition.y
    path: 
    classID: 4
    script: {fileID: 0}
  - curve:
      serializedVersion: 2
      m_Curve:
      - time: 0
        value: 310.645416
        inSlope: 0
        outSlope: 0
        tangentMode: 0
      - time: 2.56666827
        value: 310.598999
        inSlope: 0
        outSlope: 0
        tangentMode: 0
      - time: 3.65000129
        value: 315.413513
        inSlope: 6.3184185
        outSlope: 6.3184185
        tangentMode: 10
      - time: 6.66666651
        value: 340.128052
        inSlope: 5.70984888
        outSlope: 5.70984888
        tangentMode: 10
      - time: 7.69999933
        value: 343.462646
        inSlope: 0
        outSlope: 0
        tangentMode: 0
      - time: 11.0333319
        value: 343.462646
        inSlope: 0
        outSlope: 0
        tangentMode: 0
      - time: 12.0499983
        value: 339.033539
        inSlope: -6.449018
        outSlope: -6.449018
        tangentMode: 0
      - time: 15.9666662
        value: 278.978149
        inSlope: -9.92687225
        outSlope: -9.92687225
        tangentMode: 10
      - time: 16.9833317
        value: 274.382355
        inSlope: 0
        outSlope: 0
        tangentMode: 0
      - time: 19.1833324
        value: 274.382355
        inSlope: 0
        outSlope: 0
        tangentMode: 0
      - time: 20.1833305
        value: 279.777863
        inSlope: 7.34413862
        outSlope: 7.34413862
        tangentMode: 10
      - time: 22.7833328
        value: 303.939056
        inSlope: 7.40241671
        outSlope: 7.40241671
        tangentMode: 10
      - time: 24
        value: 310.645416
        inSlope: 0
        outSlope: 0
        tangentMode: 0
      m_PreInfinity: 2
      m_PostInfinity: 2
    attribute: m_LocalPosition.z
    path: 
    classID: 4
    script: {fileID: 0}
  - curve:
      serializedVersion: 2
      m_Curve:
      - time: 0
        value: 1
        inSlope: 0
        outSlope: 0
        tangentMode: 10
      - time: 2.56666827
        value: 1
        inSlope: 0
        outSlope: 0
        tangentMode: 10
      - time: 6.66666651
        value: 1
        inSlope: 0
        outSlope: 0
        tangentMode: 10
      - time: 7.69999933
        value: 1
        inSlope: 0
        outSlope: 0
        tangentMode: 10
      - time: 11.0333319
        value: 1
        inSlope: 0
        outSlope: 0
        tangentMode: 10
      - time: 12.0499983
        value: 1
        inSlope: 0
        outSlope: 0
        tangentMode: 10
      - time: 19.1833324
        value: 1
        inSlope: 0
        outSlope: 0
        tangentMode: 10
      - time: 22.7833328
        value: 1
        inSlope: 0
        outSlope: 0
        tangentMode: 10
      - time: 24
        value: 1
        inSlope: 0
        outSlope: 0
        tangentMode: 10
      m_PreInfinity: 2
      m_PostInfinity: 2
    attribute: m_LocalScale.z
    path: 
    classID: 4
    script: {fileID: 0}
  - curve:
      serializedVersion: 2
      m_Curve:
      - time: 0
        value: 1
        inSlope: 0
        outSlope: 0
        tangentMode: 10
      - time: 2.56666827
        value: 1
        inSlope: 0
        outSlope: 0
        tangentMode: 10
      - time: 6.66666651
        value: 1
        inSlope: 0
        outSlope: 0
        tangentMode: 10
      - time: 7.69999933
        value: 1
        inSlope: 0
        outSlope: 0
        tangentMode: 10
      - time: 11.0333319
        value: 1
        inSlope: 0
        outSlope: 0
        tangentMode: 10
      - time: 12.0499983
        value: 1
        inSlope: 0
        outSlope: 0
        tangentMode: 10
      - time: 19.1833324
        value: 1
        inSlope: 0
        outSlope: 0
        tangentMode: 10
      - time: 22.7833328
        value: 1
        inSlope: 0
        outSlope: 0
        tangentMode: 10
      - time: 24
        value: 1
        inSlope: 0
        outSlope: 0
        tangentMode: 10
      m_PreInfinity: 2
      m_PostInfinity: 2
    attribute: m_LocalScale.y
    path: 
    classID: 4
    script: {fileID: 0}
  - curve:
      serializedVersion: 2
      m_Curve:
      - time: 0
        value: 1
        inSlope: 0
        outSlope: 0
        tangentMode: 10
      - time: 2.56666827
        value: 1
        inSlope: 0
        outSlope: 0
        tangentMode: 10
      - time: 6.66666651
        value: 1
        inSlope: 0
        outSlope: 0
        tangentMode: 10
      - time: 7.69999933
        value: 1
        inSlope: 0
        outSlope: 0
        tangentMode: 10
      - time: 11.0333319
        value: 1
        inSlope: 0
        outSlope: 0
        tangentMode: 10
      - time: 12.0499983
        value: 1
        inSlope: 0
        outSlope: 0
        tangentMode: 10
      - time: 19.1833324
        value: 1
        inSlope: 0
        outSlope: 0
        tangentMode: 10
      - time: 22.7833328
        value: 1
        inSlope: 0
        outSlope: 0
        tangentMode: 10
      - time: 24
        value: 1
        inSlope: 0
        outSlope: 0
        tangentMode: 10
      m_PreInfinity: 2
      m_PostInfinity: 2
    attribute: m_LocalScale.x
    path: 
    classID: 4
    script: {fileID: 0}
  - curve:
      serializedVersion: 2
      m_Curve:
      - time: 0
        value: -0
        inSlope: 0
        outSlope: 0
        tangentMode: 0
      - time: .833333194
        value: -0
        inSlope: 0
        outSlope: 0
        tangentMode: 0
      - time: 1.66666579
        value: -0
        inSlope: 0
        outSlope: 0
        tangentMode: 0
      - time: 2.49999833
        value: -0
        inSlope: 0
        outSlope: 0
        tangentMode: 0
      - time: 2.74999809
        value: -0
        inSlope: 0
        outSlope: 0
        tangentMode: 0
      - time: 3.09999776
        value: -0
        inSlope: 0
        outSlope: 0
        tangentMode: 0
      - time: 3.44999743
        value: -0
        inSlope: 0
        outSlope: 0
        tangentMode: 0
      - time: 3.69999719
        value: -0
        inSlope: 0
        outSlope: 0
        tangentMode: 0
      - time: 4.51667023
        value: -0
        inSlope: 0
        outSlope: 0
        tangentMode: 0
      - time: 5.3333478
        value: -0
        inSlope: 0
        outSlope: 0
        tangentMode: 0
      - time: 6.15002537
        value: -0
        inSlope: 0
        outSlope: 0
        tangentMode: 0
      - time: 6.66669893
        value: -0
        inSlope: 0
        outSlope: 0
        tangentMode: 0
      - time: 7.13337183
        value: -0
        inSlope: 0
        outSlope: 0
        tangentMode: 0
      - time: 7.45004272
        value: -0
        inSlope: 0
        outSlope: 0
        tangentMode: 0
      - time: 7.71671295
        value: -0
        inSlope: 0
        outSlope: 0
        tangentMode: 0
      - time: 8.5500412
        value: -0
        inSlope: 0
        outSlope: 0
        tangentMode: 0
      - time: 9.38336182
        value: -0
        inSlope: 0
        outSlope: 0
        tangentMode: 0
      - time: 10.2166824
        value: -0
        inSlope: 0
        outSlope: 0
        tangentMode: 0
      - time: 11.0333366
        value: -0
        inSlope: 0
        outSlope: 0
        tangentMode: 0
      - time: 11.4833298
        value: -0
        inSlope: 0
        outSlope: 0
        tangentMode: 0
      - time: 11.7833252
        value: -0
        inSlope: 0
        outSlope: 0
        tangentMode: 0
      - time: 12.0666542
        value: -0
        inSlope: 0
        outSlope: 0
        tangentMode: 0
      - time: 12.8999748
        value: -0
        inSlope: 0
        outSlope: 0
        tangentMode: 0
      - time: 13.7332954
        value: -0
        inSlope: 0
        outSlope: 0
        tangentMode: 0
      - time: 14.5666161
        value: -0
        inSlope: 0
        outSlope: 0
        tangentMode: 0
      - time: 15.3999367
        value: -0
        inSlope: 0
        outSlope: 0
        tangentMode: 0
      - time: 15.9665947
        value: -0
        inSlope: 0
        outSlope: 0
        tangentMode: 0
      - time: 16.4165878
        value: -0
        inSlope: 0
        outSlope: 0
        tangentMode: 0
      - time: 16.7165833
        value: -0
        inSlope: 0
        outSlope: 0
        tangentMode: 0
      - time: 16.9999123
        value: -0
        inSlope: 0
        outSlope: 0
        tangentMode: 0
      - time: 17.8332329
        value: -0
        inSlope: 0
        outSlope: 0
        tangentMode: 0
      - time: 18.6665535
        value: -0
        inSlope: 0
        outSlope: 0
        tangentMode: 0
      - time: 19.1832123
        value: -0
        inSlope: 0
        outSlope: 0
        tangentMode: 0
      - time: 19.6332054
        value: -0
        inSlope: 0
        outSlope: 0
        tangentMode: 0
      - time: 19.9332008
        value: -0
        inSlope: 0
        outSlope: 0
        tangentMode: 0
      - time: 20.1998634
        value: -0
        inSlope: 0
        outSlope: 0
        tangentMode: 0
      - time: 21.0331841
        value: -0
        inSlope: 0
        outSlope: 0
        tangentMode: 0
      - time: 21.8665047
        value: -0
        inSlope: 0
        outSlope: 0
        tangentMode: 0
      - time: 22.6998253
        value: -0
        inSlope: 0
        outSlope: 0
        tangentMode: 0
      - time: 22.9831543
        value: -0
        inSlope: 0
        outSlope: 0
        tangentMode: 0
      - time: 23.3831482
        value: -0
        inSlope: 0
        outSlope: 0
        tangentMode: 0
      - time: 23.7664757
        value: -0
        inSlope: 0
        outSlope: 0
        tangentMode: 0
      - time: 24
        value: -0
        inSlope: 0
        outSlope: 0
        tangentMode: 0
      m_PreInfinity: 2
      m_PostInfinity: 2
    attribute: m_LocalRotation.x
    path: 
    classID: 4
    script: {fileID: 0}
  - curve:
      serializedVersion: 2
      m_Curve:
      - time: 0
        value: -.707106769
        inSlope: 0
        outSlope: 0
        tangentMode: 0
      - time: .833333194
        value: -.707106769
        inSlope: 0
        outSlope: 0
        tangentMode: 0
      - time: 1.66666579
        value: -.707106769
        inSlope: 0
        outSlope: 0
        tangentMode: 0
      - time: 2.49999833
        value: -.707106769
        inSlope: 0
        outSlope: 0
        tangentMode: 0
      - time: 2.74999809
        value: -.663535118
        inSlope: .457413614
        outSlope: .457413614
        tangentMode: 0
      - time: 3.09999776
        value: -.391043216
        inSlope: 1.000278
        outSlope: 1.000278
        tangentMode: 0
      - time: 3.44999743
        value: -.0703665093
        inSlope: .652822375
        outSlope: .652822375
        tangentMode: 0
      - time: 3.69999719
        value: 8.74227766e-08
        inSlope: 0
        outSlope: 0
        tangentMode: 0
      - time: 4.51667023
        value: 8.74227766e-08
        inSlope: 0
        outSlope: 0
        tangentMode: 0
      - time: 5.3333478
        value: 8.74227766e-08
        inSlope: 0
        outSlope: 0
        tangentMode: 0
      - time: 6.15002537
        value: 8.74227766e-08
        inSlope: 0
        outSlope: 0
        tangentMode: 0
      - time: 6.66669893
        value: 8.74227766e-08
        inSlope: .0182602331
        outSlope: .0182602331
        tangentMode: 0
      - time: 7.13337183
        value: .329634219
        inSlope: 1.06584287
        outSlope: 1.06584287
        tangentMode: 0
      - time: 7.45004272
        value: .620800912
        inSlope: .65545696
        outSlope: .65545696
        tangentMode: 0
      - time: 7.71671295
        value: .707106709
        inSlope: 0
        outSlope: 0
        tangentMode: 0
      - time: 8.5500412
        value: .707106709
        inSlope: 0
        outSlope: 0
        tangentMode: 0
      - time: 9.38336182
        value: .707106709
        inSlope: 0
        outSlope: 0
        tangentMode: 0
      - time: 10.2166824
        value: .707106709
        inSlope: 0
        outSlope: 0
        tangentMode: 0
      - time: 11.0333366
        value: .707106709
        inSlope: .0132878665
        outSlope: .0132878665
        tangentMode: 0
      - time: 11.4833298
        value: .896052301
        inSlope: .507383347
        outSlope: .507383347
        tangentMode: 0
      - time: 11.7833252
        value: .991066992
        inSlope: .119821474
        outSlope: .119821474
        tangentMode: 0
      - time: 12.0666542
        value: 1
        inSlope: 0
        outSlope: 0
        tangentMode: 0
      - time: 12.8999748
        value: 1
        inSlope: 0
        outSlope: 0
        tangentMode: 0
      - time: 13.7332954
        value: 1
        inSlope: 0
        outSlope: 0
        tangentMode: 0
      - time: 14.5666161
        value: 1
        inSlope: 0
        outSlope: 0
        tangentMode: 0
      - time: 15.3999367
        value: 1
        inSlope: 0
        outSlope: 0
        tangentMode: 0
      - time: 15.9665947
        value: 1
        inSlope: -5.36449988e-06
        outSlope: -5.36449988e-06
        tangentMode: 0
      - time: 16.4165878
        value: .947551787
        inSlope: -.365379661
        outSlope: -.365379661
        tangentMode: 0
      - time: 16.7165833
        value: .795134783
        inSlope: -.543518662
        outSlope: -.543518662
        tangentMode: 0
      - time: 16.9999123
        value: .707106888
        inSlope: 0
        outSlope: 0
        tangentMode: 0
      - time: 17.8332329
        value: .707106888
        inSlope: 0
        outSlope: 0
        tangentMode: 0
      - time: 18.6665535
        value: .707106888
        inSlope: 0
        outSlope: 0
        tangentMode: 0
      - time: 19.1832123
        value: .707106888
        inSlope: -.0135382097
        outSlope: -.0135382097
        tangentMode: 0
      - time: 19.6332054
        value: .436366141
        inSlope: -1.04894304
        outSlope: -1.04894304
        tangentMode: 0
      - time: 19.9332008
        value: .122525848
        inSlope: -.876716614
        outSlope: -.876716614
        tangentMode: 0
      - time: 20.1998634
        value: -1.74845553e-07
        inSlope: 0
        outSlope: 0
        tangentMode: 0
      - time: 21.0331841
        value: -1.74845553e-07
        inSlope: 0
        outSlope: 0
        tangentMode: 0
      - time: 21.8665047
        value: -1.74845553e-07
        inSlope: 0
        outSlope: 0
        tangentMode: 0
      - time: 22.6998253
        value: -1.74845553e-07
        inSlope: 0
        outSlope: 0
        tangentMode: 0
      - time: 22.9831543
        value: .0565663725
        inSlope: .530547738
        outSlope: .530547738
        tangentMode: 0
      - time: 23.3831482
        value: .375050455
        inSlope: .897165179
        outSlope: .897165179
        tangentMode: 0
      - time: 23.7664757
        value: .651608348
        inSlope: .455585539
        outSlope: .455585539
        tangentMode: 0
      - time: 24
        value: .707106888
        inSlope: .0188207012
        outSlope: .0188207012
        tangentMode: 0
      m_PreInfinity: 2
      m_PostInfinity: 2
    attribute: m_LocalRotation.y
    path: 
    classID: 4
    script: {fileID: 0}
  - curve:
      serializedVersion: 2
      m_Curve:
      - time: 0
        value: -0
        inSlope: 0
        outSlope: 0
        tangentMode: 0
      - time: .833333194
        value: -0
        inSlope: 0
        outSlope: 0
        tangentMode: 0
      - time: 1.66666579
        value: -0
        inSlope: 0
        outSlope: 0
        tangentMode: 0
      - time: 2.49999833
        value: -0
        inSlope: 0
        outSlope: 0
        tangentMode: 0
      - time: 2.74999809
        value: -0
        inSlope: 0
        outSlope: 0
        tangentMode: 0
      - time: 3.09999776
        value: -0
        inSlope: 0
        outSlope: 0
        tangentMode: 0
      - time: 3.44999743
        value: -0
        inSlope: 0
        outSlope: 0
        tangentMode: 0
      - time: 3.69999719
        value: -0
        inSlope: 0
        outSlope: 0
        tangentMode: 0
      - time: 4.51667023
        value: -0
        inSlope: 0
        outSlope: 0
        tangentMode: 0
      - time: 5.3333478
        value: -0
        inSlope: 0
        outSlope: 0
        tangentMode: 0
      - time: 6.15002537
        value: -0
        inSlope: 0
        outSlope: 0
        tangentMode: 0
      - time: 6.66669893
        value: -0
        inSlope: 0
        outSlope: 0
        tangentMode: 0
      - time: 7.13337183
        value: -0
        inSlope: 0
        outSlope: 0
        tangentMode: 0
      - time: 7.45004272
        value: -0
        inSlope: 0
        outSlope: 0
        tangentMode: 0
      - time: 7.71671295
        value: -0
        inSlope: 0
        outSlope: 0
        tangentMode: 0
      - time: 8.5500412
        value: -0
        inSlope: 0
        outSlope: 0
        tangentMode: 0
      - time: 9.38336182
        value: -0
        inSlope: 0
        outSlope: 0
        tangentMode: 0
      - time: 10.2166824
        value: -0
        inSlope: 0
        outSlope: 0
        tangentMode: 0
      - time: 11.0333366
        value: -0
        inSlope: 0
        outSlope: 0
        tangentMode: 0
      - time: 11.4833298
        value: -0
        inSlope: 0
        outSlope: 0
        tangentMode: 0
      - time: 11.7833252
        value: -0
        inSlope: 0
        outSlope: 0
        tangentMode: 0
      - time: 12.0666542
        value: -0
        inSlope: 0
        outSlope: 0
        tangentMode: 0
      - time: 12.8999748
        value: -0
        inSlope: 0
        outSlope: 0
        tangentMode: 0
      - time: 13.7332954
        value: -0
        inSlope: 0
        outSlope: 0
        tangentMode: 0
      - time: 14.5666161
        value: -0
        inSlope: 0
        outSlope: 0
        tangentMode: 0
      - time: 15.3999367
        value: -0
        inSlope: 0
        outSlope: 0
        tangentMode: 0
      - time: 15.9665947
        value: -0
        inSlope: 0
        outSlope: 0
        tangentMode: 0
      - time: 16.4165878
        value: -0
        inSlope: 0
        outSlope: 0
        tangentMode: 0
      - time: 16.7165833
        value: -0
        inSlope: 0
        outSlope: 0
        tangentMode: 0
      - time: 16.9999123
        value: -0
        inSlope: 0
        outSlope: 0
        tangentMode: 0
      - time: 17.8332329
        value: -0
        inSlope: 0
        outSlope: 0
        tangentMode: 0
      - time: 18.6665535
        value: -0
        inSlope: 0
        outSlope: 0
        tangentMode: 0
      - time: 19.1832123
        value: -0
        inSlope: 0
        outSlope: 0
        tangentMode: 0
      - time: 19.6332054
        value: -0
        inSlope: 0
        outSlope: 0
        tangentMode: 0
      - time: 19.9332008
        value: -0
        inSlope: 0
        outSlope: 0
        tangentMode: 0
      - time: 20.1998634
        value: -0
        inSlope: 0
        outSlope: 0
        tangentMode: 0
      - time: 21.0331841
        value: -0
        inSlope: 0
        outSlope: 0
        tangentMode: 0
      - time: 21.8665047
        value: -0
        inSlope: 0
        outSlope: 0
        tangentMode: 0
      - time: 22.6998253
        value: -0
        inSlope: 0
        outSlope: 0
        tangentMode: 0
      - time: 22.9831543
        value: -0
        inSlope: 0
        outSlope: 0
        tangentMode: 0
      - time: 23.3831482
        value: -0
        inSlope: 0
        outSlope: 0
        tangentMode: 0
      - time: 23.7664757
        value: -0
        inSlope: 0
        outSlope: 0
        tangentMode: 0
      - time: 24
        value: -0
        inSlope: 0
        outSlope: 0
        tangentMode: 0
      m_PreInfinity: 2
      m_PostInfinity: 2
    attribute: m_LocalRotation.z
    path: 
    classID: 4
    script: {fileID: 0}
  - curve:
      serializedVersion: 2
      m_Curve:
      - time: 0
        value: .707106769
        inSlope: 0
        outSlope: 0
        tangentMode: 0
      - time: .833333194
        value: .707106769
        inSlope: 0
        outSlope: 0
        tangentMode: 0
      - time: 1.66666579
        value: .707106769
        inSlope: 0
        outSlope: 0
        tangentMode: 0
      - time: 2.49999833
        value: .707106769
        inSlope: 0
        outSlope: 0
        tangentMode: 0
      - time: 2.74999809
        value: .748145103
        inSlope: .405382305
        outSlope: .405382305
        tangentMode: 0
      - time: 3.09999776
        value: .920372307
        inSlope: .424982131
        outSlope: .424982131
        tangentMode: 0
      - time: 3.44999743
        value: .997521222
        inSlope: .0462806672
        outSlope: .0462806672
        tangentMode: 0
      - time: 3.69999719
        value: 1
        inSlope: 0
        outSlope: 0
        tangentMode: 0
      - time: 4.51667023
        value: 1
        inSlope: 0
        outSlope: 0
        tangentMode: 0
      - time: 5.3333478
        value: 1
        inSlope: 0
        outSlope: 0
        tangentMode: 0
      - time: 6.15002537
        value: 1
        inSlope: 0
        outSlope: 0
        tangentMode: 0
      - time: 6.66669893
        value: 1
        inSlope: -5.36434663e-06
        outSlope: -5.36434663e-06
        tangentMode: 0
      - time: 7.13337183
        value: .944108725
        inSlope: -.372208744
        outSlope: -.372208744
        tangentMode: 0
      - time: 7.45004272
        value: .78396827
        inSlope: -.518700123
        outSlope: -.518700123
        tangentMode: 0
      - time: 7.71671295
        value: .707106829
        inSlope: 0
        outSlope: 0
        tangentMode: 0
      - time: 8.5500412
        value: .707106829
        inSlope: 0
        outSlope: 0
        tangentMode: 0
      - time: 9.38336182
        value: .707106829
        inSlope: 0
        outSlope: 0
        tangentMode: 0
      - time: 10.2166824
        value: .707106829
        inSlope: 0
        outSlope: 0
        tangentMode: 0
      - time: 11.0333366
        value: .707106829
        inSlope: -.013295019
        outSlope: -.013295019
        tangentMode: 0
      - time: 11.4833298
        value: .443948567
        inSlope: -1.02427435
        outSlope: -1.02427435
        tangentMode: 0
      - time: 11.7833252
        value: .133364767
        inSlope: -.888394952
        outSlope: -.888394952
        tangentMode: 0
      - time: 12.0666542
        value: -1.19248806e-08
        inSlope: 0
        outSlope: 0
        tangentMode: 0
      - time: 12.8999748
        value: -1.19248806e-08
        inSlope: 0
        outSlope: 0
        tangentMode: 0
      - time: 13.7332954
        value: -1.19248806e-08
        inSlope: 0
        outSlope: 0
        tangentMode: 0
      - time: 14.5666161
        value: -1.19248806e-08
        inSlope: 0
        outSlope: 0
        tangentMode: 0
      - time: 15.3999367
        value: -1.19248806e-08
        inSlope: 0
        outSlope: 0
        tangentMode: 0
      - time: 15.9665947
        value: -1.19248806e-08
        inSlope: -.0186255425
        outSlope: -.0186255425
        tangentMode: 0
      - time: 16.4165878
        value: -.319602311
        inSlope: -1.08300948
        outSlope: -1.08300948
        tangentMode: 0
      - time: 16.7165833
        value: -.606432736
        inSlope: -.71309042
        outSlope: -.71309042
        tangentMode: 0
      - time: 16.9999123
        value: -.70710665
        inSlope: 0
        outSlope: 0
        tangentMode: 0
      - time: 17.8332329
        value: -.70710665
        inSlope: 0
        outSlope: 0
        tangentMode: 0
      - time: 18.6665535
        value: -.70710665
        inSlope: 0
        outSlope: 0
        tangentMode: 0
      - time: 19.1832123
        value: -.70710665
        inSlope: -.0135310572
        outSlope: -.0135310572
        tangentMode: 0
      - time: 19.6332054
        value: -.899769187
        inSlope: -.508626103
        outSlope: -.508626103
        tangentMode: 0
      - time: 19.9332008
        value: -.992465317
        inSlope: -.108527407
        outSlope: -.108527407
        tangentMode: 0
      - time: 20.1998634
        value: -1
        inSlope: 0
        outSlope: 0
        tangentMode: 0
      - time: 21.0331841
        value: -1
        inSlope: 0
        outSlope: 0
        tangentMode: 0
      - time: 21.8665047
        value: -1
        inSlope: 0
        outSlope: 0
        tangentMode: 0
      - time: 22.6998253
        value: -1
        inSlope: 0
        outSlope: 0
        tangentMode: 0
      - time: 22.9831543
        value: -.99839884
        inSlope: .0302182287
        outSlope: .0302182287
        tangentMode: 0
      - time: 23.3831482
        value: -.927004397
        inSlope: .362983525
        outSlope: .362983525
        tangentMode: 0
      - time: 23.7664757
        value: -.758555591
        inSlope: .391138196
        outSlope: .391138196
        tangentMode: 0
      - time: 24
        value: -.70710665
        inSlope: .0188136306
        outSlope: .0188136306
        tangentMode: 0
      m_PreInfinity: 2
      m_PostInfinity: 2
    attribute: m_LocalRotation.w
    path: 
    classID: 4
    script: {fileID: 0}
  m_EulerEditorCurves:
  - curve:
      serializedVersion: 2
      m_Curve:
      - time: 0
        value: 0
        inSlope: 0
        outSlope: 0
        tangentMode: 10
      - time: 2.56666827
        value: 0
        inSlope: 0
        outSlope: 0
        tangentMode: 10
      - time: 3.65000129
        value: 0
        inSlope: 0
        outSlope: 0
        tangentMode: 10
      - time: 6.66666651
        value: 0
        inSlope: 0
        outSlope: 0
        tangentMode: 10
      - time: 7.69999933
        value: 0
        inSlope: 0
        outSlope: 0
        tangentMode: 10
      - time: 11.0333319
        value: 0
        inSlope: 0
        outSlope: 0
        tangentMode: 10
      - time: 12.0499983
        value: 0
        inSlope: 0
        outSlope: 0
        tangentMode: 10
      - time: 16.9833317
        value: 0
        inSlope: 0
        outSlope: 0
        tangentMode: 10
      - time: 19.1833324
        value: 0
        inSlope: 0
        outSlope: 0
        tangentMode: 10
      - time: 20.1833305
        value: 0
        inSlope: 0
        outSlope: 0
        tangentMode: 10
      - time: 22.7833328
        value: 0
        inSlope: 0
        outSlope: 0
        tangentMode: 10
      - time: 24
        value: 0
        inSlope: 0
        outSlope: 0
        tangentMode: 10
      m_PreInfinity: 2
      m_PostInfinity: 2
    attribute: localEulerAnglesBaked.x
    path: 
    classID: 4
    script: {fileID: 0}
  - curve:
      serializedVersion: 2
      m_Curve:
      - time: 0
        value: 270
        inSlope: 0
        outSlope: 0
        tangentMode: 0
      - time: 2.56666827
        value: 270
        inSlope: 0
        outSlope: 0
        tangentMode: 0
      - time: 3.65000129
        value: 360
        inSlope: 0
        outSlope: 0
        tangentMode: 0
      - time: 6.66666651
        value: 360
        inSlope: 0
        outSlope: 0
        tangentMode: 0
      - time: 7.69999933
        value: 450
        inSlope: 0
        outSlope: 0
        tangentMode: 0
      - time: 11.0333319
        value: 450
        inSlope: 0
        outSlope: 0
        tangentMode: 0
      - time: 12.0499983
        value: 540
        inSlope: 0
        outSlope: 0
        tangentMode: 0
      - time: 15.9666662
        value: 540
        inSlope: 0
        outSlope: 0
        tangentMode: 0
      - time: 16.9833336
        value: 630
        inSlope: 0
        outSlope: 0
        tangentMode: 0
      - time: 19.1833324
        value: 630
        inSlope: 0
        outSlope: 0
        tangentMode: 0
      - time: 20.1833324
        value: 720
        inSlope: 0
        outSlope: 0
        tangentMode: 0
      - time: 22.7833328
        value: 720
        inSlope: 0
        outSlope: 0
        tangentMode: 0
      - time: 24
        value: 630
        inSlope: 0
        outSlope: 0
        tangentMode: 0
      m_PreInfinity: 2
      m_PostInfinity: 2
    attribute: localEulerAnglesBaked.y
    path: 
    classID: 4
    script: {fileID: 0}
  - curve:
      serializedVersion: 2
      m_Curve:
      - time: 0
        value: 0
        inSlope: 0
        outSlope: 0
        tangentMode: 10
      - time: 2.56666827
        value: 0
        inSlope: 0
        outSlope: 0
        tangentMode: 10
      - time: 3.65000129
        value: 0
        inSlope: 0
        outSlope: 0
        tangentMode: 10
      - time: 6.66666651
        value: 0
        inSlope: 0
        outSlope: 0
        tangentMode: 10
      - time: 7.69999933
        value: 0
        inSlope: 0
        outSlope: 0
        tangentMode: 10
      - time: 11.0333319
        value: 0
        inSlope: 0
        outSlope: 0
        tangentMode: 10
      - time: 12.0499983
        value: 0
        inSlope: 0
        outSlope: 0
        tangentMode: 10
      - time: 16.9833317
        value: 0
        inSlope: 0
        outSlope: 0
        tangentMode: 10
      - time: 19.1833324
        value: 0
        inSlope: 0
        outSlope: 0
        tangentMode: 10
      - time: 20.1833305
        value: 0
        inSlope: 0
        outSlope: 0
        tangentMode: 10
      - time: 22.7833328
        value: 0
        inSlope: 0
        outSlope: 0
        tangentMode: 10
      - time: 24
        value: 0
        inSlope: 0
        outSlope: 0
        tangentMode: 10
      m_PreInfinity: 2
      m_PostInfinity: 2
    attribute: localEulerAnglesBaked.z
    path: 
    classID: 4
    script: {fileID: 0}
  m_Events: []
