%YAML 1.1
%TAG !u! tag:unity3d.com,2011:
--- !u!221 &22100000
AnimatorOverrideController:
  m_ObjectHideFlags: 0
  m_PrefabParentObject: {fileID: 0}
  m_PrefabInternal: {fileID: 0}
  m_Name: Slime
  m_Controller: {fileID: 9100000, guid: e8ae934bfa5c4eb46ae8f7b6bfd337a5, type: 2}
  m_Clips:
  - m_OriginalClip: {fileID: 7400006, guid: 8ba535c70bbcf7b46b0cba1188faae47, type: 3}
    m_OverrideClip: {fileID: 7400000, guid: b64d9c22cf32b4e4898cc86a2e97ed47, type: 3}
  - m_OriginalClip: {fileID: 7400002, guid: 8ba535c70bbcf7b46b0cba1188faae47, type: 3}
    m_OverrideClip: {fileID: 7400000, guid: 1b0ab3a30946ebe4b9961802812a327e, type: 3}
  - m_OriginalClip: {fileID: 7400018, guid: e58e375f5ed38074480b5df1226c7bc3, type: 3}
    m_OverrideClip: {fileID: 7400000, guid: f524334c8ae52f24b8c15fda83e34712, type: 3}
  - m_OriginalClip: {fileID: 7400012, guid: e58e375f5ed38074480b5df1226c7bc3, type: 3}
    m_OverrideClip: {fileID: 7400000, guid: 59513984fb4b3f2488d9398a71241451, type: 3}
